%start Time: 10h 26m 20s 605557us 
1548840389084671974,211.0,208.0,385.0,337.0,277.0,233.0,994.0,1011.0,,1548840389079154968,0.0,0.0
1548840389101690053,225.0,218.0,355.0,337.0,198.0,209.0,988.0,1008.0,,1548840389095721006,0.0,0.0
1548840389118175983,249.0,221.0,346.0,333.0,137.0,243.0,1001.0,1013.0,,1548840389112037897,0.0,0.0
1548840389134809970,250.0,223.0,357.0,343.0,240.0,238.0,986.0,1007.0,,1548840389128417015,0.0,0.0
1548840389151437997,234.0,223.0,376.0,345.0,273.0,146.0,997.0,1010.0,,1548840389145170927,0.0,0.0
1548840389168445110,234.0,223.0,375.0,336.0,258.0,61.0,999.0,1012.0,,1548840389161833047,0.0,0.0
1548840389184220075,207.0,226.0,396.0,335.0,261.0,218.0,990.0,1005.0,,1548840389177966117,0.0,0.0
1548840389201234102,165.0,210.0,394.0,331.0,264.0,216.0,994.0,1009.0,,1548840389194998979,0.0,0.0
1548840389217123985,164.0,210.0,404.0,339.0,236.0,201.0,981.0,1001.0,,1548840389210982084,0.0,0.0
1548840389233856916,232.0,205.0,404.0,335.0,262.0,227.0,993.0,1008.0,,1548840389227368116,0.0,0.0
1548840389250109910,240.0,199.0,407.0,328.0,266.0,220.0,997.0,1010.0,,1548840389244107961,0.0,0.0
1548840389266417026,235.0,196.0,396.0,324.0,274.0,221.0,997.0,1006.0,,1548840389260425090,0.0,0.0
1548840389282989978,229.0,211.0,401.0,336.0,147.0,184.0,990.0,1007.0,,1548840389277184963,0.0,0.0
1548840389299758911,234.0,209.0,387.0,337.0,25.0,90.0,993.0,1007.0,,1548840389293709039,0.0,0.0
1548840389314584970,232.0,208.0,378.0,339.0,141.0,128.0,991.0,1004.0,,1548840389310123920,0.0,0.0
1548840389332537889,235.0,204.0,378.0,338.0,256.0,204.0,1002.0,1013.0,,1548840389326574087,0.0,0.0
1548840389349185943,232.0,204.0,404.0,337.0,272.0,212.0,1002.0,1014.0,,1548840389342905998,0.0,0.0
1548840389365680932,233.0,192.0,411.0,342.0,270.0,216.0,989.0,1005.0,,1548840389359519004,0.0,0.0
1548840389382494926,232.0,198.0,399.0,340.0,188.0,226.0,989.0,1007.0,,1548840389376136064,0.0,0.0
1548840389398509979,238.0,215.0,384.0,333.0,324.0,208.0,996.0,1015.0,,1548840389392404079,0.0,0.0
1548840389414980888,237.0,222.0,389.0,341.0,272.0,227.0,995.0,1011.0,,1548840389408807992,0.0,0.0
1548840389431365966,231.0,221.0,355.0,344.0,268.0,238.0,994.0,1009.0,,1548840389425555944,0.0,0.0
1548840389447978019,238.0,227.0,351.0,334.0,266.0,238.0,999.0,1011.0,,1548840389441807031,0.0,0.0
1548840389464658021,220.0,228.0,362.0,333.0,132.0,193.0,992.0,1003.0,,1548840389458712100,0.0,0.0
1548840389481304883,209.0,215.0,374.0,332.0,53.0,237.0,989.0,1009.0,,1548840389475238084,0.0,0.0
1548840389497034072,205.0,214.0,378.0,344.0,268.0,246.0,987.0,1003.0,,1548840389491436004,0.0,0.0
1548840389513818979,191.0,214.0,391.0,340.0,264.0,236.0,999.0,1008.0,,1548840389508111000,0.0,0.0
1548840389530937910,190.0,214.0,396.0,341.0,253.0,245.0,986.0,1005.0,,1548840389525057077,0.0,0.0
1548840389546905040,234.0,208.0,390.0,332.0,114.0,233.0,996.0,1012.0,,1548840389540899991,0.0,0.0
1548840389563790082,242.0,180.0,401.0,332.0,107.0,229.0,992.0,1010.0,,1548840389557548046,0.0,0.0
1548840389580390930,237.0,176.0,396.0,330.0,262.0,234.0,987.0,1001.0,,1548840389574098110,0.0,0.0
1548840389596237897,228.0,191.0,396.0,330.0,239.0,189.0,996.0,1004.0,,1548840389590626955,0.0,0.0
1548840389612662076,237.0,209.0,397.0,329.0,227.0,79.0,994.0,1005.0,,1548840389606939077,0.0,0.0
1548840389629013061,192.0,202.0,390.0,334.0,98.0,221.0,984.0,998.0,,1548840389623878002,0.0,0.0
1548840389644031047,189.0,205.0,376.0,334.0,19.0,241.0,997.0,1012.0,,1548840389640001058,0.0,0.0
1548840389661865949,221.0,209.0,380.0,340.0,119.0,226.0,984.0,1008.0,,1548840389656817913,0.0,0.0
1548840389678529977,249.0,223.0,360.0,333.0,268.0,226.0,992.0,1012.0,,1548840389673106908,0.0,0.0
1548840389694952964,247.0,232.0,362.0,331.0,206.0,183.0,993.0,1008.0,,1548840389689482927,0.0,0.0
1548840389711808919,219.0,223.0,386.0,331.0,62.0,142.0,990.0,1006.0,,1548840389706084966,0.0,0.0
1548840389728101015,217.0,216.0,402.0,339.0,121.0,231.0,1000.0,1012.0,,1548840389722322940,0.0,0.0
1548840389745028972,215.0,217.0,404.0,338.0,225.0,218.0,994.0,1006.0,,1548840389739097118,0.0,0.0
1548840389761090993,217.0,219.0,351.0,335.0,254.0,117.0,997.0,1015.0,,1548840389755608081,0.0,0.0
1548840389777565956,215.0,218.0,353.0,339.0,195.0,67.0,991.0,1004.0,,1548840389771805047,0.0,0.0
1548840389794178009,231.0,218.0,369.0,340.0,241.0,183.0,989.0,1006.0,,1548840389788573026,0.0,0.0
1548840389810600042,234.0,217.0,388.0,340.0,228.0,231.0,997.0,1008.0,,1548840389804840087,0.0,0.0
1548840389827217102,239.0,217.0,385.0,334.0,110.0,233.0,990.0,1011.0,,1548840389821249961,0.0,0.0
1548840389843394041,231.0,197.0,371.0,335.0,233.0,236.0,1001.0,1016.0,,1548840389837918996,0.0,0.0
1548840389860279083,236.0,201.0,367.0,329.0,211.0,112.0,997.0,1015.0,,1548840389854327917,0.0,0.0
1548840389876473903,234.0,197.0,391.0,330.0,83.0,205.0,994.0,1009.0,,1548840389870764970,0.0,0.0
1548840389893074035,234.0,202.0,411.0,333.0,238.0,237.0,998.0,1011.0,,1548840389887844085,0.0,0.0
1548840389909495115,229.0,202.0,407.0,334.0,264.0,82.0,991.0,1007.0,,1548840389904340982,0.0,0.0
1548840389925801038,230.0,213.0,410.0,344.0,268.0,207.0,1004.0,1019.0,,1548840389920510053,0.0,0.0
1548840389943101882,159.0,213.0,415.0,354.0,253.0,86.0,988.0,998.0,,1548840389936852931,0.0,0.0
1548840389957500934,145.0,213.0,375.0,328.0,104.0,198.0,999.0,1016.0,,1548840389953336954,0.0,0.0
1548840389975301027,169.0,212.0,376.0,315.0,259.0,225.0,988.0,1008.0,,1548840389970251083,0.0,0.0
1548840389991929054,235.0,210.0,369.0,310.0,115.0,227.0,985.0,996.0,,1548840389986604928,0.0,0.0
1548840390008402109,241.0,221.0,361.0,330.0,24.0,235.0,1003.0,1015.0,,1548840390002624034,0.0,0.0
1548840390025206089,239.0,221.0,365.0,339.0,250.0,215.0,997.0,1009.0,,1548840390019824028,0.0,0.0
1548840390041346073,233.0,217.0,370.0,335.0,229.0,223.0,992.0,1008.0,,1548840390035794019,0.0,0.0
1548840390057684898,225.0,216.0,373.0,344.0,306.0,173.0,993.0,1004.0,,1548840390052124977,0.0,0.0
1548840390074187040,212.0,211.0,371.0,339.0,273.0,105.0,989.0,1002.0,,1548840390068631887,0.0,0.0
1548840390091054916,213.0,208.0,395.0,346.0,290.0,191.0,990.0,1006.0,,1548840390085306882,0.0,0.0
1548840390107136011,247.0,218.0,398.0,342.0,253.0,97.0,988.0,1006.0,,1548840390101670980,0.0,0.0
1548840390123444080,239.0,213.0,390.0,332.0,150.0,189.0,998.0,1013.0,,1548840390118424892,0.0,0.0
1548840390140057086,235.0,215.0,391.0,331.0,275.0,217.0,987.0,1007.0,,1548840390134654998,0.0,0.0
1548840390156472921,224.0,205.0,386.0,324.0,247.0,235.0,990.0,1006.0,,1548840390151494979,0.0,0.0
1548840390173441886,230.0,208.0,411.0,335.0,72.0,186.0,983.0,1008.0,,1548840390167792081,0.0,0.0
1548840390189596891,229.0,204.0,407.0,339.0,44.0,172.0,989.0,1002.0,,1548840390184180974,0.0,0.0
1548840390206043004,232.0,198.0,406.0,332.0,167.0,89.0,996.0,1014.0,,1548840390200973987,0.0,0.0
1548840390222223997,235.0,200.0,408.0,335.0,316.0,190.0,989.0,1008.0,,1548840390217267036,0.0,0.0
1548840390239375114,231.0,209.0,395.0,327.0,258.0,232.0,985.0,1010.0,,1548840390233544111,0.0,0.0
1548840390255834102,229.0,217.0,389.0,336.0,256.0,216.0,997.0,1013.0,,1548840390250433921,0.0,0.0
1548840390272655963,225.0,214.0,389.0,334.0,259.0,213.0,990.0,1009.0,,1548840390267046928,0.0,0.0
1548840390288486003,223.0,210.0,392.0,341.0,255.0,224.0,1001.0,1011.0,,1548840390283109903,0.0,0.0
1548840390305378913,216.0,210.0,393.0,342.0,271.0,201.0,998.0,1012.0,,1548840390299887895,0.0,0.0
1548840390321671009,208.0,202.0,390.0,337.0,261.0,232.0,989.0,1008.0,,1548840390316344022,0.0,0.0
1548840390337985038,231.0,207.0,387.0,333.0,189.0,155.0,1000.0,1012.0,,1548840390332943916,0.0,0.0
1548840390354733943,235.0,207.0,385.0,331.0,40.0,41.0,986.0,1003.0,,1548840390349265098,0.0,0.0
1548840390369218111,233.0,218.0,392.0,338.0,170.0,79.0,1005.0,1015.0,0.676127693341,-0.253128242691,0.6919978026,-0.000183116645303,-0.02,-0.02,0.0,-9.19,-3.37,-0.9,24.37,4.06,54.561548840390365597963,0.0,0.0
1548840390387547016,213.0,222.0,404.0,345.0,273.0,230.0,990.0,1003.0,0.676127693341,-0.253128242691,0.6919978026,-0.000183116645303,-0.01,0.0,-0.05,-9.19,-3.36,-0.89,24.37,4.06,54.561548840390382265090,0.0,0.0
1548840390404097080,211.0,203.0,384.0,336.0,263.0,211.0,1000.0,1010.0,0.676127693341,-0.253128242691,0.6919978026,-0.000183116645303,-0.03,-0.01,0.03,-9.21,-3.37,-0.8,23.37,4.38,55.061548840390398679018,0.0,0.0
1548840390420519113,248.0,207.0,369.0,335.0,222.0,219.0,1002.0,1013.0,0.676127693341,-0.253128242691,0.6919978026,-0.000183116645303,-0.02,0.0,0.01,-9.2,-3.36,-0.82,23.37,4.38,55.061548840390415091991,0.0,0.0
1548840390437252998,244.0,202.0,363.0,335.0,259.0,229.0,990.0,1010.0,0.676127693341,-0.253128242691,0.6919978026,-0.000183116645303,-0.02,-0.01,0.0,-9.19,-3.37,-0.83,23.37,4.38,55.061548840390431778907,0.0,0.0
1548840390453485012,240.0,205.0,399.0,346.0,269.0,235.0,994.0,1008.0,0.676127693341,-0.253128242691,0.6919978026,-0.000183116645303,-0.01,0.0,0.03,-9.18,-3.36,-0.8,24.75,4.38,57.061548840390448133945,0.0,0.0
1548840390470061063,235.0,206.0,403.0,344.0,274.0,238.0,990.0,1004.0,0.676127693341,-0.253128242691,0.6919978026,-0.000183116645303,-0.02,0.0,0.06,-9.2,-3.36,-0.78,24.75,4.38,57.061548840390464557886,0.0,0.0
1548840390486221075,232.0,203.0,384.0,333.0,271.0,220.0,984.0,1001.0,0.676127693341,-0.253128242691,0.6919978026,-0.000183116645303,-0.03,0.02,-0.01,-9.21,-3.33,-0.85,24.75,4.38,57.061548840390481280088,0.0,0.0
1548840390503185987,223.0,201.0,358.0,331.0,272.0,156.0,989.0,999.0,0.676127693341,-0.253128242691,0.6919978026,-0.000183116645303,-0.03,0.0,0.0,-9.19,-3.37,-0.81,24.37,3.25,55.381548840390497854948,0.0,0.0
1548840390518631935,226.0,210.0,353.0,321.0,133.0,113.0,987.0,1010.0,0.676127693341,-0.253128242691,0.6919978026,-0.000183116645303,-0.01,0.0,-0.02,-9.19,-3.36,-0.86,24.37,3.25,55.381548840390514036893,0.0,0.0
1548840390535769939,232.0,209.0,402.0,327.0,51.0,229.0,993.0,1008.0,0.676127693341,-0.253128242691,0.6919978026,-0.000183116645303,-0.01,0.0,-0.03,-9.19,-3.36,-0.87,24.37,3.25,55.381548840390530390977,0.0,0.0
1548840390551918029,237.0,215.0,405.0,325.0,179.0,172.0,989.0,1005.0,0.676127693341,-0.253128242691,0.6919978026,-0.000183116645303,-0.04,-0.01,0.01,-9.22,-3.39,-0.8,25.19,4.38,55.881548840390546844005,0.0,0.0
1548840390568541049,240.0,231.0,400.0,337.0,263.0,163.0,998.0,1014.0,0.676127693341,-0.253128242691,0.6919978026,-0.000183116645303,-0.02,0.0,-0.01,-9.19,-3.36,-0.85,25.19,4.38,55.881548840390563208103,0.0,0.0
1548840390585340976,238.0,230.0,408.0,344.0,272.0,144.0,995.0,1013.0,0.676127693341,-0.253128242691,0.6919978026,-0.000183116645303,-0.03,-0.01,-0.03,-9.2,-3.37,-0.88,25.19,4.38,55.881548840390580173969,0.0,0.0
1548840390602108001,233.0,200.0,402.0,340.0,155.0,169.0,997.0,1010.0,0.676127693341,-0.253128242691,0.6919978026,-0.000183116645303,-0.02,-0.02,0.04,-9.19,-3.38,-0.79,24.06,4.38,55.751548840390596508979,0.0,0.0
1548840390618195056,227.0,202.0,383.0,344.0,335.0,191.0,1003.0,1019.0,0.676127693341,-0.253128242691,0.6919978026,-0.000183116645303,-0.02,-0.02,0.01,-9.19,-3.38,-0.82,24.06,4.38,55.751548840390613296985,0.0,0.0
1548840390635049104,220.0,193.0,374.0,341.0,292.0,201.0,990.0,1004.0,0.676127693341,-0.253128242691,0.6919978026,-0.000183116645303,-0.03,-0.02,0.0,-9.21,-3.38,-0.84,24.06,4.38,55.751548840390629647016,0.0,0.0
1548840390651451110,221.0,189.0,360.0,340.0,268.0,119.0,992.0,1010.0,0.676127693341,-0.253128242691,0.6919978026,-0.000183116645303,-0.01,-0.01,0.01,-9.19,-3.37,-0.82,24.06,4.38,56.561548840390646301984,0.0,0.0
1548840390667751073,222.0,188.0,356.0,348.0,266.0,145.0,983.0,1002.0,0.676127693341,-0.253128242691,0.6919978026,-0.000183116645303,-0.03,-0.01,0.03,-9.21,-3.37,-0.8,24.06,4.38,56.561548840390662763118,0.0,0.0
1548840390684067010,222.0,213.0,348.0,305.0,230.0,216.0,996.0,1011.0,0.676127693341,-0.253128242691,0.6919978026,-0.000183116645303,-0.03,0.01,-0.05,-9.19,-3.35,-0.84,24.06,4.38,56.561548840390679230928,0.0,0.0
1548840390700897932,236.0,223.0,396.0,296.0,199.0,229.0,998.0,1013.0,0.676127693341,-0.253128242691,0.6919978026,-0.000183116645303,-0.02,0.0,0.0,-9.19,-3.36,-0.83,24.06,4.38,56.561548840390695446968,0.0,0.0
1548840390717310905,233.0,212.0,391.0,302.0,80.0,189.0,993.0,1011.0,0.676127693341,-0.253128242691,0.6919978026,-0.000183116645303,-0.02,0.01,-0.03,-9.2,-3.34,-0.87,24.37,4.06,55.061548840390712165117,0.0,0.0
1548840390733426094,208.0,207.0,385.0,341.0,264.0,231.0,998.0,1015.0,0.676127693341,-0.253128242691,0.6919978026,-0.000183116645303,-0.04,-0.01,-0.05,-9.2,-3.38,-0.87,24.37,4.06,55.061548840390728852987,0.0,0.0
1548840390750437974,192.0,207.0,383.0,350.0,256.0,207.0,993.0,1004.0,0.676127693341,-0.253128242691,0.6919978026,-0.000183116645303,-0.02,-0.01,0.02,-9.2,-3.37,-0.81,24.37,4.06,55.061548840390744945049,0.0,0.0
1548840390766741037,199.0,189.0,379.0,341.0,204.0,234.0,998.0,1012.0,0.676127693341,-0.253128242691,0.6919978026,-0.000183116645303,-0.02,-0.01,0.01,-9.2,-3.37,-0.82,24.37,3.69,55.381548840390761605024,0.0,0.0
1548840390783085107,231.0,185.0,405.0,348.0,302.0,234.0,994.0,1007.0,0.676127693341,-0.253128242691,0.6919978026,-0.000183116645303,-0.01,0.0,-0.06,-9.2,-3.37,-0.86,24.37,3.69,55.381548840390778114080,0.0,0.0
1548840390799951076,232.0,209.0,404.0,335.0,284.0,160.0,986.0,1005.0,0.676127693341,-0.253128242691,0.6919978026,-0.000183116645303,-0.02,0.0,0.04,-9.2,-3.35,-0.79,24.37,3.69,55.381548840390794913053,0.0,0.0
1548840390815963029,211.0,215.0,397.0,327.0,266.0,187.0,988.0,1003.0,0.676127693341,-0.253128242691,0.6919978026,-0.000183116645303,-0.02,0.0,0.01,-9.19,-3.35,-0.82,24.75,3.69,56.561548840390811151981,0.0,0.0
1548840390832253932,206.0,221.0,402.0,331.0,232.0,237.0,977.0,997.0,0.676127693341,-0.253128242691,0.6919978026,-0.000183116645303,-0.03,0.0,-0.05,-9.19,-3.38,-0.84,24.75,3.69,56.561548840390827605009,0.0,0.0
1548840390848892927,215.0,223.0,397.0,321.0,194.0,236.0,989.0,1003.0,0.676127693341,-0.253128242691,0.6919978026,-0.000183116645303,-0.03,0.0,0.03,-9.2,-3.36,-0.8,24.75,3.69,56.561548840390844275951,0.0,0.0
1548840390865765094,249.0,230.0,383.0,320.0,276.0,231.0,995.0,1011.0,0.676127693341,-0.253128242691,0.6919978026,-0.000183116645303,-0.02,0.0,0.03,-9.19,-3.36,-0.8,24.06,3.25,55.381548840390860728025,0.0,0.0
1548840390881889104,237.0,172.0,378.0,339.0,215.0,230.0,991.0,1008.0,0.676127693341,-0.253128242691,0.6919978026,-0.000183116645303,-0.04,-0.01,-0.07,-9.22,-3.37,-0.91,24.06,3.25,55.381548840390877051115,0.0,0.0
1548840390898592948,228.0,164.0,385.0,355.0,159.0,200.0,988.0,1007.0,0.676127693341,-0.253128242691,0.6919978026,-0.000183116645303,-0.03,-0.01,0.01,-9.21,-3.37,-0.82,24.06,3.25,55.381548840390893721103,0.0,0.0
1548840390914998054,225.0,178.0,375.0,342.0,197.0,139.0,1000.0,1009.0,0.676127693341,-0.253128242691,0.6919978026,-0.000183116645303,-0.01,0.0,0.01,-9.19,-3.35,-0.82,24.75,4.75,55.061548840390910248041,0.0,0.0
1548840390931706905,233.0,206.0,384.0,345.0,187.0,187.0,985.0,1004.0,0.676127693341,-0.253128242691,0.6919978026,-0.000183116645303,-0.01,-0.01,-0.03,-9.19,-3.37,-0.87,24.75,4.75,55.061548840390926418066,0.0,0.0
1548840390947887897,233.0,204.0,369.0,347.0,206.0,91.0,993.0,1012.0,0.676127693341,-0.253128242691,0.6919978026,-0.000183116645303,-0.02,-0.01,0.0,-9.19,-3.37,-0.83,24.75,4.75,55.061548840390943098068,0.0,0.0
1548840390964442968,232.0,195.0,369.0,343.0,225.0,118.0,995.0,1012.0,0.676127693341,-0.253128242691,0.6919978026,-0.000183116645303,-0.02,0.0,0.04,-9.18,-3.37,-0.83,24.37,4.38,56.251548840390959557056,0.0,0.0
1548840390980731964,250.0,202.0,372.0,344.0,276.0,219.0,990.0,1011.0,0.676127693341,-0.253128242691,0.6919978026,-0.000183116645303,-0.03,0.0,-0.07,-9.2,-3.36,-0.91,24.37,4.38,56.251548840390975864887,0.0,0.0
1548840390997481107,246.0,207.0,359.0,332.0,193.0,216.0,993.0,1010.0,0.676127693341,-0.253128242691,0.6919978026,-0.000183116645303,-0.03,-0.01,0.02,-9.2,-3.37,-0.81,24.37,4.38,56.251548840390992537021,0.0,0.0
1548840391014092922,240.0,221.0,370.0,332.0,308.0,202.0,995.0,1012.0,0.676127693341,-0.253128242691,0.6919978026,-0.000183116645303,-0.02,0.0,0.06,-9.2,-3.37,-0.8,23.0,4.38,55.381548840391009128093,0.0,0.0
1548840391030194044,233.0,216.0,395.0,331.0,355.0,227.0,994.0,1012.0,0.676127693341,-0.253128242691,0.6919978026,-0.000183116645303,-0.02,0.0,-0.04,-9.19,-3.35,-0.89,23.0,4.38,55.381548840391025826930,0.0,0.0
1548840391046964883,209.0,201.0,402.0,341.0,267.0,232.0,990.0,1008.0,0.676127693341,-0.253128242691,0.6919978026,-0.000183116645303,-0.03,0.0,0.01,-9.2,-3.35,-0.82,23.0,4.38,55.381548840391042126893,0.0,0.0
1548840391063324928,159.0,202.0,400.0,334.0,153.0,120.0,1005.0,1016.0,0.676127693341,-0.253128242691,0.6919978026,-0.000183116645303,-0.03,0.0,0.04,-9.19,-3.4,-0.79,24.37,4.06,56.251548840391058490037,0.0,0.0
1548840391079873085,153.0,213.0,407.0,342.0,43.0,165.0,990.0,1009.0,0.676127693341,-0.253128242691,0.6919978026,-0.000183116645303,-0.03,0.0,-0.08,-9.2,-3.35,-0.92,24.37,4.06,56.251548840391075387001,0.0,0.0
1548840391096141099,222.0,217.0,406.0,349.0,371.0,80.0,1000.0,1011.0,0.676127693341,-0.253128242691,0.6919978026,-0.000183116645303,-0.03,-0.02,0.0,-9.21,-3.38,-0.83,24.37,4.06,56.251548840391091516017,0.0,0.0
1548840391112776994,228.0,217.0,408.0,351.0,354.0,66.0,993.0,1010.0,0.676127693341,-0.253128242691,0.6919978026,-0.000183116645303,-0.02,0.0,0.02,-9.19,-3.35,-0.81,24.75,4.75,55.381548840391107878923,0.0,0.0
1548840391129080057,232.0,224.0,410.0,330.0,277.0,209.0,1006.0,1015.0,0.676127693341,-0.253128242691,0.6919978026,-0.000183116645303,-0.03,-0.02,-0.06,-9.2,-3.38,-0.9,24.75,4.75,55.381548840391124648094,0.0,0.0
1548840391145910024,232.0,230.0,339.0,330.0,271.0,231.0,990.0,1004.0,0.676127693341,-0.253128242691,0.6919978026,-0.000183116645303,-0.02,0.0,-0.03,-9.19,-3.37,-0.81,24.75,4.75,55.381548840391141309022,0.0,0.0
1548840391162365913,227.0,219.0,297.0,339.0,138.0,150.0,1004.0,1013.0,0.676127693341,-0.253128242691,0.6919978026,-0.000183116645303,-0.03,-0.01,0.04,-9.2,-3.37,-0.79,24.06,4.38,55.061548840391157970905,0.0,0.0
1548840391178811073,223.0,221.0,311.0,349.0,81.0,221.0,994.0,1006.0,0.676127693341,-0.253128242691,0.6919978026,-0.000183116645303,-0.03,0.0,-0.04,-9.21,-3.36,-0.89,24.06,4.38,55.061548840391174143075,0.0,0.0
1548840391194766998,222.0,198.0,357.0,338.0,235.0,230.0,991.0,1009.0,0.676127693341,-0.253128242691,0.6919978026,-0.000183116645303,-0.01,0.01,-0.05,-9.21,-3.37,-0.82,24.06,4.38,55.061548840391190733909,0.0,0.0
1548840391211769104,231.0,175.0,366.0,326.0,276.0,233.0,994.0,1005.0,0.676127693341,-0.253128242691,0.6919978026,-0.000183116645303,-0.03,0.0,0.02,-9.2,-3.35,-0.81,24.06,4.06,55.881548840391207395076,0.0,0.0
1548840391228024005,234.0,174.0,390.0,321.0,220.0,207.0,993.0,1007.0,0.676127693341,-0.253128242691,0.6919978026,-0.000183116645303,-0.04,0.0,-0.04,-9.21,-3.36,-0.89,24.06,4.06,55.881548840391223565101,0.0,0.0
1548840391244719028,227.0,191.0,395.0,342.0,72.0,72.0,996.0,1010.0,0.676127693341,-0.253128242691,0.6919978026,-0.000183116645303,-0.04,0.0,-0.04,-9.21,-3.36,-0.89,24.06,4.06,55.881548840391239917993,0.0,0.0
1548840391259505987,212.0,196.0,391.0,345.0,25.0,164.0,986.0,1006.0,0.676127693341,-0.253128242691,0.6919978026,-0.000183116645303,0.0,-0.01,0.02,-9.18,-3.37,-0.81,24.37,4.38,55.381548840391256916999,0.0,0.0
1548840391277437925,212.0,199.0,384.0,335.0,244.0,233.0,989.0,1012.0,0.676127693341,-0.253128242691,0.6919978026,-0.000183116645303,-0.04,0.0,-0.06,-9.22,-3.36,-0.9,24.37,4.38,55.381548840391273001909,0.0,0.0
1548840391294375896,242.0,207.0,392.0,340.0,243.0,230.0,992.0,1010.0,0.676127693341,-0.253128242691,0.6919978026,-0.000183116645303,-0.01,0.0,0.0,-9.19,-3.36,-0.83,24.37,4.38,55.381548840391289362907,0.0,0.0
1548840391310625076,244.0,205.0,362.0,332.0,259.0,206.0,987.0,1003.0,0.676127693341,-0.253128242691,0.6919978026,-0.000183116645303,-0.02,-0.01,0.02,-9.19,-3.37,-0.81,24.75,4.06,54.251548840391306090116,0.0,0.0
1548840391327307939,233.0,210.0,361.0,346.0,160.0,138.0,985.0,1004.0,0.676127693341,-0.253128242691,0.6919978026,-0.000183116645303,-0.03,0.0,0.03,-9.21,-3.36,-0.9,24.75,4.06,54.251548840391322402954,0.0,0.0
1548840391343753099,222.0,209.0,374.0,342.0,70.0,221.0,989.0,1006.0,0.676127693341,-0.253128242691,0.6919978026,-0.000183116645303,-0.02,0.0,-0.03,-9.2,-3.35,-0.87,24.75,4.06,54.251548840391338836908,0.0,0.0
1548840391360104084,215.0,203.0,411.0,331.0,232.0,224.0,987.0,1001.0,0.676127693341,-0.253128242691,0.6919978026,-0.000183116645303,-0.03,-0.01,0.07,-9.2,-3.37,-0.76,24.06,3.69,55.381548840391355592012,0.0,0.0
1548840391376650094,223.0,207.0,413.0,324.0,153.0,169.0,994.0,1012.0,0.676127693341,-0.253128242691,0.6919978026,-0.000183116645303,-0.03,-0.01,0.03,-9.19,-3.37,-0.88,24.06,3.69,55.381548840391371912002,0.0,0.0
1548840391393044948,214.0,200.0,394.0,327.0,249.0,36.0,987.0,1003.0,0.676127693341,-0.253128242691,0.6919978026,-0.000183116645303,-0.03,-0.01,0.0,-9.2,-3.37,-0.84,24.06,3.69,55.381548840391388403892,0.0,0.0
1548840391409528970,242.0,211.0,393.0,336.0,75.0,124.0,995.0,1011.0,0.676127693341,-0.253128242691,0.6919978026,-0.000183116645303,-0.02,-0.02,0.02,-9.2,-3.38,-0.81,23.0,3.69,54.691548840391405055046,0.0,0.0
1548840391425864934,245.0,209.0,402.0,343.0,85.0,226.0,990.0,1004.0,0.676127693341,-0.253128242691,0.6919978026,-0.000183116645303,0.0,0.0,0.04,-9.18,-3.34,-0.89,23.0,3.69,54.691548840391421358108,0.0,0.0
1548840391442049026,239.0,218.0,411.0,323.0,269.0,222.0,991.0,1006.0,0.676127693341,-0.253128242691,0.6919978026,-0.000183116645303,0.0,-0.01,-0.01,-9.18,-3.37,-0.85,23.0,3.69,54.691548840391437828063,0.0,0.0
1548840391458777904,235.0,220.0,410.0,324.0,279.0,228.0,999.0,1006.0,0.676127693341,-0.253128242691,0.6919978026,-0.000183116645303,0.0,-0.01,0.02,-9.17,-3.37,-0.81,23.37,4.06,55.381548840391454509973,0.0,0.0
1548840391475509881,231.0,215.0,355.0,322.0,252.0,138.0,997.0,1014.0,0.676127693341,-0.253128242691,0.6919978026,-0.000183116645303,-0.01,-0.01,0.0,-9.2,-3.35,-0.89,23.37,4.06,55.381548840391470798015,0.0,0.0
1548840391492091894,176.0,216.0,359.0,351.0,187.0,201.0,989.0,1004.0,0.676127693341,-0.253128242691,0.6919978026,-0.000183116645303,-0.01,0.0,-0.03,-9.19,-3.35,-0.88,23.37,4.06,55.381548840391487565040,0.0,0.0
1548840391508507966,171.0,215.0,359.0,344.0,149.0,204.0,989.0,1004.0,0.676127693341,-0.253128242691,0.6919978026,-0.000183116645303,0.0,0.0,0.03,-9.19,-3.35,-0.8,24.06,4.06,56.561548840391503923892,0.0,0.0
1548840391525068998,202.0,173.0,379.0,332.0,261.0,217.0,994.0,1014.0,0.676127693341,-0.253128242691,0.6919978026,-0.000183116645303,0.0,-0.01,0.01,-9.17,-3.37,-0.82,24.06,4.06,56.561548840391520268917,0.0,0.0
1548840391541455030,238.0,167.0,378.0,332.0,218.0,84.0,995.0,1009.0,0.676127693341,-0.253128242691,0.6919978026,-0.000183116645303,-0.01,0.01,-0.02,-9.18,-3.34,-0.86,24.06,4.06,56.561548840391537024021,0.0,0.0
1548840391557636976,238.0,188.0,397.0,325.0,224.0,120.0,987.0,1006.0,0.676127693341,-0.253128242691,0.6919978026,-0.000183116645303,-0.02,0.0,0.01,-9.17,-3.37,-0.8,23.0,4.38,55.51548840391553400039,0.0,0.0
1548840391574060916,234.0,207.0,406.0,332.0,198.0,217.0,1003.0,1015.0,0.676127693341,-0.253128242691,0.6919978026,-0.000183116645303,0.0,0.01,0.04,-9.17,-3.34,-0.79,23.0,4.38,55.51548840391569331884,0.0,0.0
1548840391590493917,235.0,207.0,401.0,329.0,72.0,227.0,986.0,1005.0,0.676127693341,-0.253128242691,0.6919978026,-0.000183116645303,-0.01,-0.01,0.03,-9.19,-3.37,-0.8,23.0,4.38,55.51548840391586163997,0.0,0.0
1548840391606808900,230.0,221.0,398.0,340.0,170.0,236.0,1005.0,1012.0,0.676127693341,-0.253128242691,0.6919978026,-0.000183116645303,0.01,0.01,0.01,-9.19,-3.35,-0.79,24.06,4.38,55.061548840391602376937,0.0,0.0
1548840391623539924,228.0,222.0,401.0,347.0,266.0,205.0,992.0,1007.0,0.676127693341,-0.253128242691,0.6919978026,-0.000183116645303,-0.01,0.01,0.05,-9.19,-3.34,-0.78,24.06,4.38,55.061548840391618892908,0.0,0.0
1548840391639918088,222.0,221.0,383.0,339.0,268.0,174.0,996.0,1016.0,0.676127693341,-0.253128242691,0.6919978026,-0.000183116645303,-0.02,0.0,0.0,-9.19,-3.36,-0.83,24.06,4.38,55.061548840391635656118,0.0,0.0
1548840391656223058,221.0,229.0,391.0,345.0,213.0,228.0,990.0,1006.0,0.676127693341,-0.253128242691,0.6919978026,-0.000183116645303,0.0,0.0,0.03,-9.18,-3.36,-0.8,23.37,3.25,56.251548840391652028083,0.0,0.0
1548840391673007011,211.0,219.0,375.0,334.0,247.0,207.0,991.0,1007.0,0.676127693341,-0.253128242691,0.6919978026,-0.000183116645303,0.0,0.0,-0.01,-9.18,-3.35,-0.85,23.37,3.25,56.251548840391668421030,0.0,0.0
1548840391689588069,236.0,219.0,389.0,343.0,267.0,69.0,995.0,1008.0,0.676127693341,-0.253128242691,0.6919978026,-0.000183116645303,0.0,-0.01,0.0,-9.17,-3.37,-0.83,23.37,3.25,56.251548840391685048103,0.0,0.0
1548840391706115007,233.0,215.0,386.0,347.0,275.0,68.0,990.0,1002.0,0.676127693341,-0.253128242691,0.6919978026,-0.000183116645303,-0.02,0.0,0.01,-9.19,-3.35,-0.82,23.0,3.69,55.061548840391701621055,0.0,0.0
1548840391722625970,235.0,210.0,365.0,322.0,272.0,227.0,1000.0,1012.0,0.676127693341,-0.253128242691,0.6919978026,-0.000183116645303,-0.01,0.02,0.01,-9.18,-3.33,-0.82,23.0,3.69,55.061548840391718586921,0.0,0.0
1548840391739101886,247.0,212.0,373.0,329.0,268.0,229.0,989.0,1005.0,0.676127693341,-0.253128242691,0.6919978026,-0.000183116645303,0.0,0.0,0.0,-9.17,-3.36,-0.84,23.0,3.69,55.061548840391734895944,0.0,0.0
1548840391755652904,247.0,211.0,375.0,310.0,258.0,218.0,988.0,1011.0,0.676127693341,-0.253128242691,0.6919978026,-0.000183116645303,0.0,-0.01,0.02,-9.17,-3.37,-0.81,24.06,5.06,55.881548840391751183032,0.0,0.0
1548840391772201061,238.0,220.0,411.0,321.0,259.0,221.0,998.0,1008.0,0.676127693341,-0.253128242691,0.6919978026,-0.000183116645303,0.0,0.0,0.0,-9.18,-3.36,-0.83,24.06,5.06,55.881548840391767976999,0.0,0.0
1548840391788553953,232.0,221.0,412.0,317.0,111.0,205.0,988.0,1001.0,0.676127693341,-0.253128242691,0.6919978026,-0.000183116645303,0.0,-0.01,-0.04,-9.17,-3.35,-0.83,24.06,5.06,55.881548840391784334897,0.0,0.0
1548840391805214881,181.0,207.0,368.0,351.0,213.0,187.0,998.0,1009.0,0.676127693341,-0.253128242691,0.6919978026,-0.000183116645303,0.0,0.0,0.04,-9.16,-3.36,-0.79,24.06,5.06,55.881548840391801207065,0.0,0.0
1548840391821836948,160.0,211.0,366.0,346.0,224.0,144.0,995.0,1012.0,0.676127693341,-0.253128242691,0.6919978026,-0.000183116645303,-0.01,0.0,0.04,-9.18,-3.35,-0.79,22.56,4.38,56.251548840391817475080,0.0,0.0
1548840391838336944,160.0,140.0,360.0,337.0,302.0,58.0,982.0,1004.0,0.676127693341,-0.253128242691,0.6919978026,-0.000183116645303,0.0,0.0,-0.05,-9.18,-3.35,-0.84,22.56,4.38,56.251548840391833893060,0.0,0.0
1548840391854526042,247.0,65.0,363.0,341.0,274.0,155.0,1002.0,1012.0,0.676127693341,-0.253128242691,0.6919978026,-0.000183116645303,0.0,0.0,0.03,-9.17,-3.35,-0.8,22.56,4.38,56.251548840391850203990,0.0,0.0
1548840391871247053,246.0,67.0,360.0,338.0,264.0,214.0,989.0,1006.0,0.676127693341,-0.253128242691,0.6919978026,-0.000183116645303,-0.02,0.0,-0.03,-9.19,-3.35,-0.87,24.06,2.56,56.251548840391866874933,0.0,0.0
1548840391887527942,241.0,196.0,405.0,332.0,223.0,165.0,1002.0,1013.0,0.676127693341,-0.253128242691,0.6919978026,-0.000183116645303,0.0,0.01,-0.04,-9.19,-3.36,-0.85,24.06,2.56,56.251548840391883239984,0.0,0.0
1548840391904433965,241.0,209.0,409.0,329.0,236.0,191.0,995.0,1008.0,0.676127693341,-0.253128242691,0.6919978026,-0.000183116645303,0.0,0.0,0.02,-9.18,-3.35,-0.81,24.06,2.56,56.251548840391900393962,0.0,0.0
1548840391920558929,230.0,213.0,402.0,322.0,267.0,137.0,996.0,1011.0,0.676127693341,-0.253128242691,0.6919978026,-0.000183116645303,0.0,0.0,0.0,-9.17,-3.35,-0.83,23.0,3.69,56.691548840391916368961,0.0,0.0
1548840391937026023,223.0,218.0,414.0,335.0,252.0,217.0,995.0,1008.0,0.676127693341,-0.253128242691,0.6919978026,-0.000183116645303,0.01,0.01,-0.04,-9.17,-3.35,-0.86,23.0,3.69,56.691548840391932717084,0.0,0.0
1548840391953541994,219.0,214.0,405.0,330.0,96.0,222.0,989.0,1005.0,0.676127693341,-0.253128242691,0.6919978026,-0.000183116645303,-0.01,-0.01,0.04,-9.18,-3.37,-0.79,23.0,3.69,56.691548840391949385881,0.0,0.0
1548840391969820976,235.0,226.0,400.0,352.0,167.0,181.0,996.0,1010.0,0.676127693341,-0.253128242691,0.6919978026,-0.000183116645303,0.0,0.02,0.05,-9.17,-3.33,-0.8,23.0,3.69,55.881548840391965780973,0.0,0.0
1548840391986565113,236.0,220.0,399.0,352.0,88.0,59.0,989.0,1005.0,0.676127693341,-0.253128242691,0.6919978026,-0.000183116645303,0.0,0.02,0.05,-9.17,-3.33,-0.8,23.0,3.69,55.881548840391982502937,0.0,0.0
1548840392001329898,232.0,217.0,381.0,340.0,278.0,204.0,995.0,1011.0,0.676127693341,-0.253128242691,0.6919978026,-0.000183116645303,0.0,-0.01,0.02,-9.17,-3.37,-0.81,23.0,3.69,55.881548840391998846054,0.0,0.0
1548840392019473075,236.0,222.0,382.0,349.0,276.0,231.0,988.0,1001.0,0.676127693341,-0.253128242691,0.6919978026,-0.000183116645303,0.0,0.0,0.03,-9.18,-3.35,-0.8,22.25,4.06,55.061548840392015149116,0.0,0.0
1548840392035902976,235.0,216.0,373.0,316.0,248.0,234.0,982.0,1005.0,0.676127693341,-0.253128242691,0.6919978026,-0.000183116645303,0.0,0.02,-0.04,-9.18,-3.33,-0.89,22.25,4.06,55.061548840392031584024,0.0,0.0
1548840392052392005,233.0,218.0,400.0,305.0,225.0,224.0,986.0,998.0,0.676127693341,-0.253128242691,0.6919978026,-0.000183116645303,-0.01,-0.01,0.01,-9.19,-3.37,-0.82,22.25,4.06,55.061548840392048291921,0.0,0.0
1548840392068691015,233.0,214.0,391.0,295.0,221.0,238.0,987.0,1005.0,0.676127693341,-0.253128242691,0.6919978026,-0.000183116645303,0.0,-0.01,0.03,-9.17,-3.36,-0.85,24.37,3.69,55.881548840392064779043,0.0,0.0
1548840392085215091,228.0,190.0,386.0,338.0,282.0,237.0,995.0,1013.0,0.676127693341,-0.253128242691,0.6919978026,-0.000183116645303,-0.03,0.0,-0.06,-9.2,-3.36,-0.9,24.37,3.69,55.881548840392081193923,0.0,0.0
1548840392101792097,231.0,192.0,390.0,344.0,266.0,232.0,984.0,1004.0,0.676127693341,-0.253128242691,0.6919978026,-0.000183116645303,0.0,0.01,0.01,-9.18,-3.34,-0.82,24.37,3.69,55.881548840392097843885,0.0,0.0
1548840392118530035,207.0,193.0,371.0,334.0,215.0,197.0,988.0,1005.0,0.676127693341,-0.253128242691,0.6919978026,-0.000183116645303,0.0,0.02,0.04,-9.18,-3.35,-0.81,23.37,4.38,55.381548840392114176034,0.0,0.0
1548840392134840965,198.0,213.0,329.0,339.0,246.0,44.0,990.0,1007.0,0.676127693341,-0.253128242691,0.6919978026,-0.000183116645303,0.0,0.02,-0.07,-9.17,-3.33,-0.91,23.37,4.38,55.381548840392131098031,0.0,0.0
1548840392151127099,186.0,191.0,321.0,336.0,369.0,82.0,997.0,1006.0,0.676127693341,-0.253128242691,0.6919978026,-0.000183116645303,0.0,-0.01,0.03,-9.18,-3.37,-0.8,23.37,4.38,55.381548840392147301912,0.0,0.0
1548840392167784929,237.0,83.0,364.0,339.0,265.0,230.0,998.0,1009.0,0.676127693341,-0.253128242691,0.6919978026,-0.000183116645303,0.0,0.01,0.03,-9.18,-3.34,-0.8,22.25,4.06,56.251548840392163933038,0.0,0.0
1548840392184055089,242.0,64.0,387.0,346.0,260.0,233.0,995.0,1009.0,0.676127693341,-0.253128242691,0.6919978026,-0.000183116645303,0.0,0.0,-0.03,-9.17,-3.35,-0.87,22.25,4.06,56.251548840392180365085,0.0,0.0
1548840392200723886,235.0,168.0,382.0,332.0,196.0,169.0,995.0,1009.0,0.676127693341,-0.253128242691,0.6919978026,-0.000183116645303,-0.01,0.0,0.0,-9.17,-3.34,-0.81,22.25,4.06,56.251548840392196743011,0.0,0.0
1548840392217407941,247.0,217.0,396.0,327.0,81.0,136.0,999.0,1010.0,0.676127693341,-0.253128242691,0.6919978026,-0.000183116645303,0.0,0.0,0.03,-9.17,-3.36,-0.8,22.25,4.75,55.061548840392213676929,0.0,0.0
1548840392233566999,237.0,212.0,387.0,325.0,177.0,222.0,988.0,1007.0,0.676127693341,-0.253128242691,0.6919978026,-0.000183116645303,0.0,-0.01,-0.05,-9.16,-3.37,-0.9,22.25,4.75,55.061548840392229824066,0.0,0.0
1548840392250255107,218.0,220.0,395.0,345.0,270.0,233.0,996.0,1011.0,0.676127693341,-0.253128242691,0.6919978026,-0.000183116645303,0.0,0.0,0.0,-9.17,-3.36,-0.81,22.25,4.75,55.061548840392246179103,0.0,0.0
1548840392266966104,218.0,219.0,392.0,346.0,268.0,195.0,1000.0,1014.0,0.676127693341,-0.253128242691,0.6919978026,-0.000183116645303,-0.01,0.0,0.02,-9.18,-3.35,-0.81,24.37,4.75,55.061548840392262970924,0.0,0.0
1548840392283730030,226.0,216.0,394.0,331.0,256.0,87.0,995.0,1014.0,0.676127693341,-0.253128242691,0.6919978026,-0.000183116645303,0.0,0.0,-0.06,-9.18,-3.35,-0.9,24.37,4.75,55.061548840392279592990,0.0,0.0
1548840392299352884,227.0,214.0,400.0,333.0,138.0,176.0,997.0,1009.0,0.676127693341,-0.253128242691,0.6919978026,-0.000183116645303,-0.01,0.0,-0.02,-9.17,-3.37,-0.82,24.37,4.75,55.061548840392295845985,0.0,0.0
1548840392316495895,226.0,212.0,391.0,324.0,103.0,218.0,990.0,1010.0,0.676127693341,-0.253128242691,0.6919978026,-0.000183116645303,0.0,0.0,0.05,-9.16,-3.36,-0.79,23.0,4.06,55.51548840392312254905,0.0,0.0
1548840392332688093,229.0,214.0,366.0,331.0,252.0,238.0,1001.0,1012.0,0.676127693341,-0.253128242691,0.6919978026,-0.000183116645303,0.0,0.0,-0.05,-9.17,-3.36,-0.89,23.0,4.06,55.51548840392328733921,0.0,0.0
1548840392349220991,230.0,219.0,363.0,334.0,299.0,234.0,989.0,1003.0,0.676127693341,-0.253128242691,0.6919978026,-0.000183116645303,0.0,0.0,-0.02,-9.18,-3.36,-0.81,23.0,4.06,55.51548840392345324039,0.0,0.0
1548840392365775108,232.0,226.0,361.0,322.0,244.0,102.0,999.0,1010.0,0.676127693341,-0.253128242691,0.6919978026,-0.000183116645303,0.0,0.01,0.06,-9.18,-3.34,-0.78,21.87,4.06,56.251548840392361987113,0.0,0.0
1548840392382010936,241.0,231.0,378.0,324.0,104.0,201.0,995.0,1011.0,0.676127693341,-0.253128242691,0.6919978026,-0.000183116645303,0.0,0.0,-0.03,-9.18,-3.36,-0.88,21.87,4.06,56.251548840392378186941,0.0,0.0
1548840392398958921,232.0,216.0,370.0,333.0,263.0,231.0,990.0,1010.0,0.676127693341,-0.253128242691,0.6919978026,-0.000183116645303,0.0,0.01,-0.01,-9.16,-3.34,-0.85,21.87,4.06,56.251548840392394927024,0.0,0.0
1548840392415374040,241.0,212.0,392.0,345.0,198.0,223.0,990.0,1009.0,0.676127693341,-0.253128242691,0.6919978026,-0.000183116645303,0.0,0.0,0.03,-9.17,-3.35,-0.8,24.37,4.38,55.061548840392411520957,0.0,0.0
1548840392431545972,236.0,210.0,389.0,333.0,263.0,70.0,991.0,1010.0,0.676127693341,-0.253128242691,0.6919978026,-0.000183116645303,-0.01,0.0,0.06,-9.19,-3.36,-0.9,24.37,4.38,55.061548840392427685022,0.0,0.0
1548840392447846889,215.0,208.0,391.0,338.0,263.0,25.0,993.0,1011.0,0.676127693341,-0.253128242691,0.6919978026,-0.000183116645303,0.0,0.0,-0.01,-9.17,-3.35,-0.85,24.37,4.38,55.061548840392444060087,0.0,0.0
1548840392464092016,210.0,205.0,363.0,337.0,170.0,218.0,999.0,1006.0,0.676127693341,-0.253128242691,0.6919978026,-0.000183116645303,-0.02,0.0,0.03,-9.2,-3.35,-0.8,23.0,4.06,55.061548840392460890054,0.0,0.0
1548840392481141090,216.0,141.0,360.0,332.0,97.0,231.0,1004.0,1016.0,0.676127693341,-0.253128242691,0.6919978026,-0.000183116645303,-0.01,0.0,0.0,-9.18,-3.37,-0.91,23.0,4.06,55.061548840392477154016,0.0,0.0
1548840392497761011,219.0,116.0,396.0,343.0,122.0,227.0,990.0,1009.0,0.676127693341,-0.253128242691,0.6919978026,-0.000183116645303,0.0,0.02,-0.02,-9.18,-3.33,-0.86,23.0,4.06,55.061548840392493609905,0.0,0.0
1548840392514111995,220.0,132.0,393.0,335.0,242.0,210.0,984.0,1002.0,0.676127693341,-0.253128242691,0.6919978026,-0.000183116645303,0.0,0.0,0.07,-9.17,-3.36,-0.76,24.06,3.25,56.251548840392510384082,0.0,0.0
1548840392530204057,242.0,218.0,389.0,347.0,247.0,92.0,991.0,1008.0,0.676127693341,-0.253128242691,0.6919978026,-0.000183116645303,0.0,0.0,0.03,-9.17,-3.35,-0.88,24.06,3.25,56.251548840392526571035,0.0,0.0
1548840392547071933,237.0,218.0,346.0,347.0,157.0,224.0,989.0,1004.0,0.676127693341,-0.253128242691,0.6919978026,-0.000183116645303,-0.01,-0.01,-0.03,-9.18,-3.37,-0.88,24.06,3.25,56.251548840392542977094,0.0,0.0
1548840392563554048,238.0,228.0,342.0,346.0,286.0,214.0,993.0,1011.0,0.676127693341,-0.253128242691,0.6919978026,-0.000183116645303,-0.02,0.0,0.05,-9.2,-3.35,-0.79,23.75,4.38,56.251548840392559959888,0.0,0.0
1548840392579967021,238.0,228.0,396.0,342.0,271.0,127.0,997.0,1012.0,0.676127693341,-0.253128242691,0.6919978026,-0.000183116645303,0.01,0.0,0.03,-9.16,-3.35,-0.8,23.75,4.38,56.251548840392576030015,0.0,0.0
1548840392596690893,232.0,223.0,405.0,334.0,239.0,84.0,982.0,1002.0,0.676127693341,-0.253128242691,0.6919978026,-0.000183116645303,0.0,0.01,-0.02,-9.17,-3.34,-0.86,23.75,4.38,56.251548840392592830896,0.0,0.0
1548840392612669944,236.0,213.0,396.0,335.0,237.0,183.0,995.0,1006.0,0.676127693341,-0.253128242691,0.6919978026,-0.000183116645303,-0.01,0.01,0.01,-9.18,-3.36,-0.78,24.06,3.69,55.51548840392609227895,0.0,0.0
1548840392629153966,232.0,213.0,383.0,337.0,128.0,220.0,989.0,1004.0,0.676127693341,-0.253128242691,0.6919978026,-0.000183116645303,0.0,0.02,0.02,-9.18,-3.33,-0.81,24.06,3.69,55.51548840392625494003,0.0,0.0
1548840392645998954,211.0,216.0,386.0,298.0,251.0,236.0,998.0,1011.0,0.676127693341,-0.253128242691,0.6919978026,-0.000183116645303,0.0,0.0,0.0,-9.16,-3.36,-0.84,24.06,3.69,55.51548840392642359972,0.0,0.0
1548840392662415027,207.0,217.0,408.0,301.0,78.0,240.0,982.0,996.0,0.676127693341,-0.253128242691,0.6919978026,-0.000183116645303,0.0,0.01,0.0,-9.18,-3.38,-0.81,24.06,3.69,55.51548840392658620119,0.0,0.0
1548840392677383899,