%start Time: 10h 22m 8s 681847us 
1548840136658706903,235.0,206.0,406.0,328.0,242.0,227.0,992.0,1009.0,,1548840136642429113,0.0,0.0
1548840136675668001,234.0,204.0,412.0,334.0,156.0,214.0,993.0,1006.0,,1548840136658905029,0.0,0.0
1548840136691790103,230.0,190.0,397.0,332.0,34.0,143.0,996.0,1017.0,,1548840136675486087,0.0,0.0
1548840136708300113,234.0,128.0,421.0,353.0,216.0,228.0,996.0,1006.0,,1548840136691689014,0.0,0.0
1548840136724889039,239.0,126.0,410.0,334.0,271.0,229.0,992.0,1008.0,,1548840136708426952,0.0,0.0
1548840136741684913,237.0,200.0,406.0,320.0,264.0,238.0,991.0,1005.0,,1548840136724813938,0.0,0.0
1548840136758388042,236.0,216.0,407.0,326.0,269.0,222.0,997.0,1011.0,,1548840136741663932,0.0,0.0
1548840136774298906,231.0,214.0,387.0,333.0,183.0,224.0,996.0,1010.0,,1548840136758243083,0.0,0.0
1548840136790678024,219.0,233.0,387.0,341.0,269.0,231.0,999.0,1016.0,,1548840136774390935,0.0,0.0
1548840136807244062,207.0,226.0,381.0,338.0,271.0,234.0,984.0,1005.0,,1548840136791047096,0.0,0.0
1548840136823637962,233.0,203.0,343.0,338.0,267.0,219.0,1000.0,1010.0,,1548840136807447910,0.0,0.0
1548840136840786933,248.0,201.0,344.0,342.0,274.0,119.0,991.0,1011.0,,1548840136823623895,0.0,0.0
1548840136856759071,243.0,192.0,378.0,333.0,136.0,178.0,995.0,1009.0,,1548840136840511083,0.0,0.0
1548840136873614072,237.0,196.0,409.0,337.0,24.0,244.0,1002.0,1013.0,,1548840136856790065,0.0,0.0
1548840136889473915,234.0,193.0,407.0,335.0,253.0,234.0,989.0,1004.0,,1548840136873248100,0.0,0.0
1548840136906397104,202.0,215.0,365.0,339.0,269.0,238.0,1000.0,1009.0,,1548840136889852046,0.0,0.0
1548840136923044919,192.0,212.0,357.0,336.0,260.0,104.0,993.0,1011.0,,1548840136906388044,0.0,0.0
1548840136938781023,202.0,205.0,384.0,345.0,141.0,207.0,995.0,1014.0,,1548840136922877073,0.0,0.0
1548840136955365896,232.0,204.0,398.0,350.0,317.0,230.0,993.0,1008.0,,1548840136939183950,0.0,0.0
1548840136971685886,229.0,198.0,387.0,340.0,253.0,235.0,996.0,1011.0,,1548840136955317974,0.0,0.0
1548840136988059997,233.0,199.0,386.0,354.0,117.0,99.0,991.0,1004.0,,1548840136971954107,0.0,0.0
1548840137004407882,233.0,201.0,379.0,335.0,232.0,28.0,987.0,1002.0,,1548840136988403081,0.0,0.0
1548840137020994901,235.0,176.0,399.0,314.0,77.0,185.0,990.0,1005.0,,1548840137004662990,0.0,0.0
1548840137038180112,239.0,173.0,404.0,312.0,16.0,233.0,992.0,1007.0,,1548840137021584987,0.0,0.0
1548840137054331064,236.0,186.0,402.0,322.0,43.0,216.0,984.0,1005.0,,1548840137038487911,0.0,0.0
1548840137071101903,234.0,221.0,416.0,329.0,256.0,211.0,993.0,1009.0,,1548840137054699897,0.0,0.0
1548840137087456941,233.0,217.0,411.0,333.0,246.0,189.0,987.0,1007.0,,1548840137071615934,0.0,0.0
1548840137103997945,232.0,214.0,404.0,345.0,119.0,179.0,996.0,1009.0,,1548840137087968111,0.0,0.0
1548840137120546102,226.0,215.0,399.0,344.0,236.0,198.0,990.0,1009.0,,1548840137104377985,0.0,0.0
1548840137136754035,223.0,194.0,384.0,336.0,282.0,90.0,993.0,1011.0,,1548840137121057033,0.0,0.0
1548840137153173923,215.0,189.0,359.0,347.0,241.0,50.0,986.0,1003.0,,1548840137137253999,0.0,0.0
1548840137169745922,213.0,181.0,342.0,328.0,224.0,146.0,987.0,1003.0,,1548840137153721094,0.0,0.0
1548840137186510086,234.0,197.0,392.0,325.0,163.0,219.0,994.0,1014.0,,1548840137170259952,0.0,0.0
1548840137203154087,232.0,195.0,403.0,324.0,229.0,220.0,990.0,1006.0,,1548840137186640024,0.0,0.0
1548840137219238996,216.0,201.0,398.0,340.0,159.0,195.0,986.0,1004.0,,1548840137203552961,0.0,0.0
1548840137236074924,214.0,207.0,384.0,338.0,263.0,218.0,996.0,1009.0,,1548840137219852924,0.0,0.0
1548840137252168893,213.0,190.0,375.0,339.0,216.0,228.0,996.0,1014.0,,1548840137236107110,0.0,0.0
1548840137269196987,243.0,129.0,407.0,345.0,139.0,232.0,997.0,1013.0,,1548840137252888917,0.0,0.0
1548840137285444021,246.0,129.0,407.0,339.0,211.0,238.0,995.0,1011.0,,1548840137269253969,0.0,0.0
1548840137302068948,233.0,197.0,411.0,346.0,269.0,221.0,986.0,1003.0,,1548840137285725116,0.0,0.0
1548840137318130016,229.0,209.0,396.0,347.0,271.0,237.0,987.0,1006.0,,1548840137302474975,0.0,0.0
1548840137335114955,228.0,213.0,394.0,312.0,203.0,237.0,989.0,1002.0,,1548840137318942070,0.0,0.0
1548840137351444959,236.0,223.0,374.0,311.0,111.0,226.0,994.0,1011.0,,1548840137335187911,0.0,0.0
1548840137367980957,230.0,221.0,374.0,316.0,229.0,238.0,987.0,1004.0,,1548840137352057933,0.0,0.0
1548840137384865999,247.0,221.0,378.0,312.0,154.0,236.0,1002.0,1018.0,,1548840137368527889,0.0,0.0
1548840137400753974,244.0,212.0,402.0,319.0,31.0,240.0,1001.0,1012.0,,1548840137384752035,0.0,0.0
1548840137416800975,231.0,216.0,404.0,346.0,160.0,220.0,1000.0,1014.0,,1548840137401509046,0.0,0.0
1548840137433403968,220.0,221.0,387.0,354.0,82.0,236.0,997.0,1007.0,,1548840137417399883,0.0,0.0
1548840137450123071,215.0,218.0,380.0,344.0,326.0,219.0,992.0,1006.0,,1548840137433835983,0.0,0.0
1548840137466900110,181.0,211.0,387.0,346.0,298.0,226.0,992.0,1007.0,,1548840137450869083,0.0,0.0
1548840137483594894,181.0,211.0,388.0,336.0,265.0,226.0,996.0,1011.0,,1548840137467250108,0.0,0.0
1548840137499819993,218.0,188.0,395.0,337.0,240.0,131.0,987.0,1004.0,,1548840137483957052,0.0,0.0
1548840137516081094,233.0,183.0,390.0,338.0,109.0,210.0,994.0,1005.0,,1548840137500257968,0.0,0.0
1548840137533092021,234.0,188.0,381.0,309.0,244.0,211.0,992.0,1009.0,,1548840137516913890,0.0,0.0
1548840137549264907,234.0,205.0,388.0,309.0,242.0,224.0,992.0,1006.0,,1548840137533474922,0.0,0.0
1548840137565566062,230.0,206.0,389.0,327.0,92.0,215.0,992.0,1010.0,,1548840137549916982,0.0,0.0
1548840137582035064,224.0,131.0,396.0,353.0,226.0,207.0,1002.0,1012.0,,1548840137566108942,0.0,0.0
1548840137598475933,225.0,120.0,386.0,349.0,132.0,145.0,993.0,1008.0,,1548840137582916021,0.0,0.0
1548840137614756107,226.0,149.0,385.0,343.0,189.0,135.0,991.0,1005.0,,1548840137599137067,0.0,0.0
1548840137632208108,237.0,223.0,392.0,342.0,261.0,225.0,990.0,1010.0,,1548840137615441083,0.0,0.0
1548840137648085117,229.0,221.0,398.0,308.0,265.0,189.0,984.0,1008.0,,1548840137632297039,0.0,0.0
1548840137665050983,232.0,225.0,402.0,293.0,266.0,198.0,989.0,1005.0,,1548840137648571968,0.0,0.0
1548840137681008100,225.0,215.0,363.0,293.0,244.0,225.0,994.0,1009.0,,1548840137665278911,0.0,0.0
1548840137697487115,237.0,220.0,366.0,321.0,264.0,216.0,993.0,1014.0,,1548840137681581974,0.0,0.0
1548840137714246034,235.0,218.0,376.0,330.0,270.0,234.0,991.0,1004.0,,1548840137698236942,0.0,0.0
1548840137730782032,235.0,216.0,387.0,335.0,253.0,211.0,993.0,1007.0,,1548840137714818000,0.0,0.0
1548840137746898889,232.0,215.0,398.0,344.0,218.0,85.0,996.0,1010.0,,1548840137731408119,0.0,0.0
1548840137763463973,232.0,217.0,380.0,339.0,266.0,57.0,987.0,1004.0,,1548840137747523069,0.0,0.0
1548840137779433012,209.0,219.0,378.0,338.0,269.0,215.0,1001.0,1013.0,,1548840137764194965,0.0,0.0
1548840137796955108,203.0,223.0,385.0,340.0,229.0,215.0,993.0,1010.0,,1548840137780783891,0.0,0.0
1548840137812870979,218.0,216.0,387.0,335.0,178.0,220.0,992.0,1010.0,,1548840137797180891,0.0,0.0
1548840137829361915,239.0,191.0,390.0,338.0,222.0,176.0,996.0,1007.0,,1548840137813621997,0.0,0.0
1548840137845705032,234.0,191.0,384.0,331.0,228.0,226.0,994.0,1010.0,,1548840137830095052,0.0,0.0
1548840137862103939,232.0,205.0,384.0,336.0,273.0,223.0,997.0,1007.0,,1548840137846831083,0.0,0.0
1548840137879054069,232.0,211.0,379.0,334.0,271.0,224.0,991.0,1007.0,,1548840137863193988,0.0,0.0
1548840137895302057,215.0,215.0,374.0,328.0,236.0,183.0,996.0,1010.0,,1548840137879558086,0.0,0.0
1548840137911634922,204.0,225.0,379.0,333.0,129.0,82.0,983.0,1003.0,,1548840137896090984,0.0,0.0
1548840137928168058,207.0,220.0,393.0,330.0,207.0,225.0,996.0,1010.0,,1548840137912556886,0.0,0.0
1548840137944572925,243.0,224.0,402.0,338.0,287.0,218.0,988.0,1007.0,,1548840137928956031,0.0,0.0
1548840137961363077,243.0,218.0,393.0,327.0,260.0,221.0,997.0,1012.0,,1548840137945595979,0.0,0.0
1548840137977740049,242.0,217.0,400.0,327.0,210.0,195.0,995.0,1008.0,,1548840137962112903,0.0,0.0
1548840137994218111,242.0,211.0,402.0,327.0,112.0,149.0,987.0,1007.0,,1548840137978430032,0.0,0.0
1548840138010445117,234.0,204.0,391.0,337.0,216.0,228.0,994.0,1012.0,,1548840137995057106,0.0,0.0
1548840138027249097,233.0,210.0,396.0,345.0,273.0,223.0,993.0,1003.0,,1548840138011400938,0.0,0.0
1548840138043545007,236.0,209.0,396.0,324.0,253.0,138.0,984.0,1008.0,,1548840138027926921,0.0,0.0
1548840138060028076,234.0,215.0,405.0,311.0,222.0,87.0,993.0,1008.0,,1548840138044483900,0.0,0.0
1548840138076663970,232.0,214.0,401.0,307.0,101.0,199.0,993.0,1009.0,,1548840138060971975,0.0,0.0
1548840138092917919,227.0,215.0,377.0,328.0,22.0,230.0,1006.0,1019.0,,1548840138077723026,0.0,0.0
1548840138109369993,225.0,214.0,386.0,340.0,237.0,221.0,994.0,1012.0,,1548840138094218969,0.0,0.0
1548840138126015901,222.0,206.0,385.0,336.0,266.0,221.0,993.0,1011.0,,1548840138110527038,0.0,0.0
1548840138142585039,237.0,215.0,395.0,341.0,219.0,112.0,1003.0,1016.0,,1548840138127028942,0.0,0.0
1548840138159347057,233.0,210.0,395.0,345.0,253.0,202.0,987.0,1007.0,,1548840138143596887,0.0,0.0
1548840138175498008,228.0,214.0,397.0,344.0,277.0,234.0,1003.0,1015.0,,1548840138159845113,0.0,0.0
1548840138191937923,233.0,226.0,403.0,343.0,275.0,97.0,984.0,1000.0,,1548840138176343917,0.0,0.0
1548840138208028078,209.0,216.0,377.0,325.0,254.0,19.0,998.0,1012.0,,1548840138192715883,0.0,0.0
1548840138224364042,179.0,224.0,383.0,330.0,118.0,13.0,990.0,1006.0,,1548840138209116935,0.0,0.0
1548840138240995883,182.0,220.0,375.0,318.0,301.0,123.0,989.0,1006.0,,1548840138225737094,0.0,0.0
1548840138257709980,227.0,199.0,395.0,318.0,156.0,234.0,1000.0,1014.0,,1548840138242131948,0.0,0.0
1548840138274189949,236.0,178.0,392.0,319.0,62.0,212.0,995.0,1005.0,,1548840138258553981,0.0,0.0
1548840138290518045,236.0,178.0,389.0,324.0,263.0,218.0,996.0,1007.0,,1548840138275160074,0.0,0.0
1548840138307203054,239.0,208.0,401.0,333.0,206.0,90.0,989.0,1004.0,,1548840138291623115,0.0,0.0
1548840138323596000,233.0,213.0,396.0,331.0,115.0,196.0,978.0,997.0,,1548840138308722972,0.0,0.0
1548840138340256929,215.0,215.0,415.0,345.0,405.0,46.0,994.0,1006.0,,1548840138324881076,0.0,0.0
1548840138356765031,218.0,217.0,415.0,344.0,286.0,47.0,985.0,1005.0,,1548840138341527938,0.0,0.0
1548840138372936010,227.0,211.0,403.0,327.0,266.0,119.0,994.0,1012.0,,1548840138358171939,0.0,0.0
1548840138389663934,236.0,205.0,409.0,331.0,204.0,82.0,995.0,1011.0,,1548840138374361991,0.0,0.0
1548840138406419038,227.0,200.0,401.0,320.0,152.0,187.0,982.0,1005.0,,1548840138390666961,0.0,0.0
1548840138422913074,238.0,211.0,401.0,319.0,282.0,178.0,992.0,1009.0,,1548840138408076047,0.0,0.0
1548840138439536094,232.0,207.0,396.0,321.0,91.0,188.0,992.0,1008.0,,1548840138424180984,0.0,0.0
1548840138455634117,226.0,209.0,369.0,338.0,119.0,136.0,990.0,1013.0,,1548840138440318107,0.0,0.0
1548840138472477912,227.0,214.0,365.0,347.0,159.0,144.0,992.0,1008.0,0.675639382287,-0.253250320454,0.692486113654,0.000183116645303,-0.03,-0.01,0.0,-9.19,-3.35,-0.82,23.0,4.75,54.251548840138457210063,0.0,0.0
1548840138488574981,229.0,211.0,366.0,336.0,244.0,153.0,987.0,1010.0,0.675639382287,-0.253250320454,0.692486113654,0.000183116645303,-0.04,0.0,0.01,-9.22,-3.35,-0.83,23.0,3.69,56.251548840138473495960,0.0,0.0
1548840138505316019,236.0,234.0,403.0,347.0,440.0,134.0,991.0,1008.0,0.675639382287,-0.253250320454,0.692486113654,0.000183116645303,-0.03,-0.01,-0.05,-9.2,-3.37,-0.9,23.0,3.69,56.251548840138489692926,0.0,0.0
1548840138521752119,233.0,229.0,394.0,335.0,285.0,212.0,988.0,1007.0,0.675639382287,-0.253250320454,0.692486113654,0.000183116645303,-0.03,0.0,0.0,-9.2,-3.35,-0.82,23.0,3.69,56.251548840138506432056,0.0,0.0
1548840138538254022,234.0,217.0,361.0,338.0,269.0,128.0,991.0,1006.0,0.675639382287,-0.253250320454,0.692486113654,0.000183116645303,-0.01,0.0,0.04,-9.19,-3.36,-0.8,23.0,4.75,55.51548840138522773027,0.0,0.0
1548840138554817914,236.0,203.0,356.0,337.0,210.0,191.0,997.0,1008.0,0.675639382287,-0.253250320454,0.692486113654,0.000183116645303,-0.02,0.0,-0.04,-9.19,-3.34,-0.89,23.0,4.75,55.51548840138539485931,0.0,0.0
1548840138570956945,235.0,200.0,358.0,309.0,254.0,234.0,995.0,1008.0,0.675639382287,-0.253189281572,0.692486113654,0.000183116645303,-0.02,0.03,0.0,-9.21,-3.34,-0.85,23.0,4.75,55.51548840138555663108,0.0,0.0
1548840138587296962,240.0,210.0,385.0,308.0,280.0,239.0,1004.0,1013.0,0.675639382287,-0.253189281572,0.692486113654,0.000183116645303,-0.02,0.0,0.02,-9.19,-3.36,-0.82,22.56,4.38,55.881548840138572011947,0.0,0.0
1548840138604048967,233.0,213.0,388.0,317.0,167.0,239.0,987.0,1005.0,0.675639382287,-0.253189281572,0.692486113654,0.000183116645303,-0.02,0.01,-0.07,-9.2,-3.34,-0.93,22.56,4.38,55.881548840138588747024,0.0,0.0
1548840138620064020,233.0,212.0,390.0,333.0,37.0,102.0,1004.0,1014.0,0.675639382287,-0.253189281572,0.692486113654,0.000183116645303,-0.02,0.02,-0.01,-9.2,-3.33,-0.87,22.56,4.38,55.881548840138605128049,0.0,0.0
1548840138636825084,231.0,218.0,396.0,336.0,119.0,204.0,984.0,998.0,0.675639382287,-0.253189281572,0.692486113654,0.000183116645303,-0.02,-0.01,0.06,-9.2,-3.36,-0.79,23.37,4.06,55.881548840138621465921,0.0,0.0
1548840138653017997,178.0,217.0,390.0,337.0,41.0,65.0,997.0,1009.0,0.675639382287,-0.253189281572,0.692486113654,0.000183116645303,-0.03,0.0,0.01,-9.2,-3.37,-0.91,23.37,4.06,55.881548840138638628005,0.0,0.0
1548840138667994976,168.0,213.0,399.0,344.0,222.0,227.0,989.0,1006.0,0.675639382287,-0.253189281572,0.692486113654,0.000183116645303,-0.03,0.01,-0.02,-9.2,-3.33,-0.87,23.37,4.06,55.881548840138654524087,0.0,0.0
1548840138686080932,202.0,206.0,388.0,330.0,265.0,239.0,1003.0,1015.0,0.675639382287,-0.253189281572,0.692486113654,0.000183116645303,-0.04,0.0,0.05,-9.22,-3.35,-0.79,23.37,5.06,55.061548840138670968055,0.0,0.0
1548840138702857971,253.0,172.0,416.0,332.0,266.0,203.0,1001.0,1016.0,0.675639382287,-0.253189281572,0.692486113654,0.000183116645303,-0.03,-0.01,0.02,-9.2,-3.36,-0.9,23.37,5.06,55.061548840138687674045,0.0,0.0
1548840138719230890,249.0,155.0,410.0,326.0,157.0,227.0,991.0,1007.0,0.675639382287,-0.253189281572,0.692486113654,0.000183116645303,-0.03,0.0,0.0,-9.2,-3.35,-0.84,23.37,5.06,55.061548840138704052925,0.0,0.0
1548840138735733985,231.0,176.0,402.0,331.0,264.0,229.0,995.0,1006.0,0.675639382287,-0.253189281572,0.692486113654,0.000183116645303,-0.05,0.0,0.01,-9.22,-3.35,-0.84,22.56,5.5,55.51548840138720473051,0.0,0.0
1548840138752350091,230.0,223.0,398.0,336.0,276.0,218.0,986.0,1008.0,0.675639382287,-0.253189281572,0.692486113654,0.000183116645303,-0.02,0.01,0.02,-9.2,-3.35,-0.91,22.56,5.5,55.51548840138737164974,0.0,0.0
1548840138768882989,207.0,219.0,392.0,334.0,278.0,228.0,989.0,1008.0,0.675639382287,-0.253189281572,0.692486113654,0.000183116645303,-0.02,0.01,0.02,-9.2,-3.33,-0.83,22.56,5.5,55.51548840138753494024,0.0,0.0
1548840138785196065,198.0,217.0,355.0,334.0,138.0,178.0,997.0,1014.0,0.675639382287,-0.253189281572,0.692486113654,0.000183116645303,-0.03,0.0,0.03,-9.2,-3.35,-0.81,22.25,3.69,56.251548840138770384073,0.0,0.0
1548840138801915884,206.0,216.0,344.0,331.0,35.0,98.0,982.0,1006.0,0.675639382287,-0.253189281572,0.692486113654,0.000183116645303,-0.01,0.01,-0.01,-9.19,-3.33,-0.86,22.25,3.69,56.251548840138786955118,0.0,0.0
1548840138816654920,251.0,201.0,372.0,348.0,337.0,101.0,990.0,1008.0,0.675639382287,-0.253189281572,0.692486113654,0.000183116645303,-0.02,0.0,-0.02,-9.2,-3.36,-0.87,22.25,3.69,56.251548840138803158044,0.0,0.0
1548840138834837913,255.0,189.0,410.0,344.0,215.0,207.0,998.0,1011.0,0.675639382287,-0.253189281572,0.692486113654,0.000183116645303,-0.01,0.02,0.03,-9.2,-3.37,-0.81,23.0,4.75,56.751548840138819890975,0.0,0.0
1548840138851064920,220.0,190.0,413.0,339.0,261.0,205.0,988.0,1007.0,0.675639382287,-0.253189281572,0.692486113654,0.000183116645303,-0.01,-0.01,0.05,-9.19,-3.36,-0.8,23.0,4.75,56.751548840138836031913,0.0,0.0
1548840138867387056,219.0,209.0,386.0,335.0,259.0,227.0,999.0,1010.0,0.675639382287,-0.253189281572,0.692486113654,0.000183116645303,-0.04,0.0,-0.07,-9.21,-3.34,-0.92,23.0,4.75,56.751548840138852164983,0.0,0.0
1548840138883975982,215.0,209.0,385.0,326.0,201.0,224.0,984.0,1003.0,0.675639382287,-0.253189281572,0.692486113654,0.000183116645303,-0.04,0.01,0.05,-9.19,-3.36,-0.79,23.75,4.38,55.881548840138868865013,0.0,0.0
1548840138901071071,229.0,209.0,386.0,317.0,271.0,226.0,994.0,1014.0,0.675639382287,-0.253189281572,0.692486113654,0.000183116645303,-0.02,0.0,0.02,-9.2,-3.34,-0.83,23.75,4.38,55.881548840138885339021,0.0,0.0
1548840138917411088,225.0,208.0,405.0,327.0,221.0,231.0,978.0,998.0,0.675639382287,-0.253189281572,0.692486113654,0.000183116645303,-0.04,0.0,0.01,-9.21,-3.34,-0.84,23.75,4.38,55.881548840138901801109,0.0,0.0
1548840138933787107,240.0,210.0,399.0,333.0,268.0,202.0,998.0,1011.0,0.675639382287,-0.253189281572,0.692486113654,0.000183116645303,-0.03,0.0,0.03,-9.2,-3.36,-0.81,21.87,4.38,55.51548840138918764114,0.0,0.0
1548840138950505018,241.0,213.0,391.0,340.0,258.0,95.0,994.0,1009.0,0.675639382287,-0.253189281572,0.692486113654,0.000183116645303,-0.02,0.0,0.05,-9.19,-3.35,-0.79,21.87,4.38,55.51548840138935221910,0.0,0.0
1548840138966564893,234.0,210.0,381.0,343.0,193.0,197.0,998.0,1013.0,0.675639382287,-0.253189281572,0.692486113654,0.000183116645303,-0.02,0.0,0.0,-9.19,-3.35,-0.86,21.87,4.38,55.51548840138951858997,0.0,0.0
1548840138983093976,232.0,188.0,390.0,350.0,207.0,236.0,995.0,1010.0,0.675639382287,-0.253189281572,0.692486113654,0.000183116645303,-0.03,0.0,0.03,-9.21,-3.35,-0.81,23.0,4.75,55.51548840138968262910,0.0,0.0
1548840138999605894,223.0,187.0,393.0,341.0,243.0,222.0,992.0,1013.0,0.675639382287,-0.253189281572,0.692486113654,0.000183116645303,-0.02,-0.01,0.02,-9.2,-3.36,-0.83,23.0,4.75,55.51548840138984708070,0.0,0.0
1548840139015744924,152.0,172.0,403.0,335.0,215.0,227.0,992.0,1004.0,0.675639382287,-0.253189281572,0.692486113654,0.000183116645303,-0.02,0.0,0.0,-9.19,-3.35,-0.86,23.0,4.75,55.51548840139001312017,0.0,0.0
1548840139032167911,148.0,143.0,406.0,336.0,248.0,230.0,995.0,1007.0,0.675639382287,-0.253189281572,0.692486113654,0.000183116645303,-0.02,0.01,0.02,-9.19,-3.34,-0.83,23.0,4.38,55.061548840139017486095,0.0,0.0
1548840139048743963,224.0,142.0,402.0,334.0,270.0,217.0,1001.0,1017.0,0.675639382287,-0.253189281572,0.692486113654,0.000183116645303,-0.01,0.0,0.01,-9.19,-3.35,-0.83,23.0,4.38,55.061548840139033818960,0.0,0.0
1548840139065534114,236.0,211.0,407.0,340.0,278.0,241.0,990.0,1010.0,0.675639382287,-0.253189281572,0.692486113654,0.000183116645303,-0.04,0.0,-0.06,-9.21,-3.34,-0.89,23.0,4.38,55.061548840139050271987,0.0,0.0
1548840139081410884,214.0,220.0,397.0,331.0,201.0,231.0,992.0,1010.0,0.675639382287,-0.253189281572,0.692486113654,0.000183116645303,-0.02,0.0,0.02,-9.19,-3.34,-0.82,23.0,4.38,55.061548840139066819906,0.0,0.0
1548840139098119020,181.0,221.0,400.0,341.0,163.0,202.0,988.0,1005.0,0.675639382287,-0.253189281572,0.692486113654,0.000183116645303,-0.03,0.0,0.06,-9.2,-3.35,-0.79,23.0,4.38,56.691548840139083044052,0.0,0.0
1548840139114538908,180.0,222.0,368.0,343.0,256.0,159.0,993.0,1010.0,0.675639382287,-0.253189281572,0.692486113654,0.000183116645303,-0.01,0.0,-0.05,-9.18,-3.35,-0.86,23.0,4.38,56.691548840139099771022,0.0,0.0
1548840139130880117,236.0,216.0,364.0,336.0,257.0,241.0,1003.0,1011.0,0.675639382287,-0.253189281572,0.692486113654,0.000183116645303,-0.03,0.0,0.02,-9.2,-3.35,-0.82,23.0,4.38,56.691548840139116271018,0.0,0.0
1548840139147612094,249.0,204.0,395.0,334.0,238.0,205.0,995.0,1012.0,0.675639382287,-0.253189281572,0.692486113654,0.000183116645303,-0.02,0.0,0.05,-9.19,-3.35,-0.79,23.0,4.38,56.751548840139132939100,0.0,0.0
1548840139163919925,227.0,197.0,412.0,342.0,254.0,234.0,990.0,1005.0,0.675639382287,-0.253189281572,0.692486113654,0.000183116645303,-0.03,-0.01,-0.07,-9.21,-3.35,-0.85,23.0,4.38,56.751548840139149730920,0.0,0.0
1548840139180286884,226.0,211.0,408.0,345.0,275.0,228.0,984.0,1004.0,0.675639382287,-0.253189281572,0.692486113654,0.000183116645303,-0.03,-0.01,0.04,-9.21,-3.36,-0.81,23.0,4.38,56.751548840139165791988,0.0,0.0
1548840139196988105,223.0,211.0,373.0,343.0,228.0,227.0,990.0,1010.0,0.675639382287,-0.253189281572,0.692486113654,0.000183116645303,-0.03,-0.01,0.0,-9.2,-3.36,-0.84,22.56,4.38,56.691548840139182610034,0.0,0.0
1548840139213356971,214.0,215.0,380.0,333.0,264.0,220.0,988.0,1006.0,0.675639382287,-0.253189281572,0.692486113654,0.000183116645303,-0.03,-0.01,-0.06,-9.21,-3.36,-0.86,22.56,4.38,56.691548840139198997020,0.0,0.0
1548840139229737997,215.0,210.0,370.0,331.0,272.0,183.0,988.0,1003.0,0.675639382287,-0.253189281572,0.692486113654,0.000183116645303,-0.03,0.0,0.0,-9.21,-3.35,-0.85,22.56,4.38,56.691548840139215348958,0.0,0.0
1548840139246510982,238.0,204.0,365.0,336.0,265.0,107.0,998.0,1015.0,0.675639382287,-0.253189281572,0.692486113654,0.000183116645303,-0.05,0.0,0.02,-9.22,-3.35,-0.82,22.56,4.06,56.251548840139231776952,0.0,0.0
1548840139262814044,243.0,205.0,374.0,342.0,273.0,132.0,991.0,1011.0,0.675639382287,-0.253189281572,0.692486113654,0.000183116645303,-0.03,-0.01,-0.06,-9.2,-3.36,-0.91,22.56,4.06,56.251548840139248522996,0.0,0.0
1548840139279155969,240.0,203.0,397.0,331.0,210.0,233.0,993.0,1011.0,0.675639382287,-0.253189281572,0.692486113654,0.000183116645303,-0.04,-0.01,0.04,-9.21,-3.37,-0.8,22.56,4.06,56.251548840139264673948,0.0,0.0
1548840139295905113,238.0,200.0,409.0,331.0,287.0,232.0,997.0,1011.0,0.675639382287,-0.253189281572,0.692486113654,0.000183116645303,-0.04,-0.01,0.04,-9.18,-3.36,-0.79,23.0,4.06,55.061548840139281229972,0.0,0.0
1548840139312355041,241.0,198.0,402.0,328.0,154.0,227.0,995.0,1005.0,0.675639382287,-0.253189281572,0.692486113654,0.000183116645303,-0.02,0.0,-0.05,-9.19,-3.35,-0.9,23.0,4.06,55.061548840139297662019,0.0,0.0
1548840139328720092,213.0,196.0,399.0,350.0,189.0,235.0,999.0,1006.0,0.675639382287,-0.253189281572,0.692486113654,0.000183116645303,-0.03,0.0,0.03,-9.2,-3.36,-0.82,23.0,4.06,55.061548840139314152956,0.0,0.0
1548840139345304965,210.0,225.0,396.0,351.0,266.0,198.0,1000.0,1012.0,0.675639382287,-0.253189281572,0.692486113654,0.000183116645303,-0.04,0.0,0.03,-9.22,-3.36,-0.79,23.0,4.38,56.251548840139330671072,0.0,0.0
1548840139362190008,218.0,227.0,371.0,344.0,183.0,224.0,989.0,1010.0,0.675639382287,-0.253189281572,0.692486113654,0.000183116645303,-0.02,-0.03,-0.05,-9.19,-3.39,-0.9,23.0,4.38,56.251548840139347105979,0.0,0.0
1548840139378545045,230.0,222.0,369.0,347.0,279.0,192.0,1001.0,1012.0,0.675639382287,-0.253189281572,0.692486113654,0.000183116645303,-0.03,0.01,0.04,-9.21,-3.34,-0.81,23.0,4.38,56.251548840139363523960,0.0,0.0
1548840139394867897,227.0,220.0,398.0,344.0,276.0,72.0,993.0,1009.0,0.675639382287,-0.253189281572,0.692486113654,0.000183116645303,-0.05,0.01,0.03,-9.19,-3.35,-0.86,22.56,4.38,55.51548840139380458116,0.0,0.0
1548840139411792993,239.0,219.0,409.0,338.0,253.0,162.0,1000.0,1008.0,0.675639382287,-0.253189281572,0.692486113654,0.000183116645303,-0.02,-0.01,-0.04,-9.2,-3.36,-0.9,22.56,4.38,55.51548840139396595954,0.0,0.0
1548840139428781032,239.0,212.0,410.0,337.0,154.0,225.0,995.0,1011.0,0.675639382287,-0.253189281572,0.692486113654,0.000183116645303,-0.01,0.01,0.03,-9.19,-3.34,-0.82,22.56,4.38,55.51548840139413722038,0.0,0.0
1548840139445456981,228.0,210.0,405.0,329.0,94.0,202.0,996.0,1009.0,0.675639382287,-0.253189281572,0.692486113654,0.000183116645303,-0.01,0.0,0.04,-9.21,-3.35,-0.82,22.56,4.38,55.51548840139430164098,0.0,0.0
1548840139461426019,231.0,204.0,405.0,327.0,61.0,240.0,994.0,1010.0,0.675639382287,-0.253189281572,0.692486113654,0.000183116645303,-0.03,0.0,-0.04,-9.2,-3.35,-0.9,22.56,4.38,55.51548840139446460962,0.0,0.0
1548840139477672100,228.0,194.0,397.0,321.0,235.0,237.0,994.0,1012.0,0.675639382287,-0.253189281572,0.692486113654,0.000183116645303,-0.02,0.0,-0.03,-9.19,-3.37,-0.81,22.56,4.38,55.51548840139463223934,0.0,0.0
1548840139493871927,235.0,202.0,407.0,346.0,73.0,232.0,991.0,1004.0,0.675639382287,-0.253189281572,0.692486113654,0.000183116645303,-0.01,0.0,0.05,-9.19,-3.35,-0.79,23.0,4.06,54.751548840139479510068,0.0,0.0
1548840139510334014,231.0,216.0,402.0,350.0,30.0,83.0,985.0,1002.0,0.675639382287,-0.253189281572,0.692486113654,0.000183116645303,0.0,0.01,-0.06,-9.17,-3.33,-0.91,23.0,4.06,54.751548840139495706081,0.0,0.0
1548840139524936914,225.0,216.0,381.0,334.0,121.0,204.0,993.0,1005.0,0.675639382287,-0.253189281572,0.692486113654,0.000183116645303,0.0,0.0,-0.01,-9.17,-3.34,-0.84,23.0,4.06,54.751548840139512412071,0.0,0.0
1548840139543448925,223.0,202.0,379.0,332.0,411.0,57.0,988.0,1006.0,0.675639382287,-0.253189281572,0.692486113654,0.000183116645303,0.01,0.0,0.03,-9.15,-3.35,-0.81,23.0,5.06,55.51548840139528796911,0.0,0.0
1548840139559895038,224.0,199.0,400.0,325.0,358.0,42.0,987.0,1007.0,0.675639382287,-0.253189281572,0.692486113654,0.000183116645303,0.0,0.0,-0.07,-9.17,-3.34,-0.92,23.0,5.06,55.51548840139545308113,0.0,0.0
1548840139576111078,231.0,194.0,411.0,337.0,280.0,226.0,987.0,1000.0,0.675639382287,-0.253189281572,0.692486113654,0.000183116645303,0.0,0.0,0.0,-9.15,-3.32,-0.83,23.0,5.06,55.51548840139561842918,0.0,0.0
1548840139593230962,231.0,190.0,398.0,330.0,235.0,175.0,990.0,1007.0,0.675639382287,-0.253189281572,0.692486113654,0.000183116645303,0.01,0.0,0.04,-9.15,-3.34,-0.8,23.37,4.75,55.061548840139578177928,0.0,0.0
1548840139609679937,241.0,192.0,369.0,343.0,122.0,131.0,989.0,1008.0,0.675639382287,-0.253189281572,0.692486113654,0.000183116645303,0.01,-0.01,-0.04,-9.16,-3.36,-0.89,23.37,4.75,55.061548840139595112085,0.0,0.0
1548840139626421928,243.0,217.0,364.0,342.0,206.0,182.0,991.0,1007.0,0.675639382287,-0.253189281572,0.692486113654,0.000183116645303,0.0,0.01,-0.02,-9.15,-3.36,-0.8,23.37,4.75,55.061548840139611674070,0.0,0.0
1548840139642328977,201.0,215.0,370.0,334.0,262.0,176.0,995.0,1010.0,0.675639382287,-0.253189281572,0.692486113654,0.000183116645303,0.0,0.0,0.07,-9.17,-3.35,-0.78,21.87,4.75,55.881548840139627849102,0.0,0.0
1548840139658596992,195.0,218.0,378.0,335.0,207.0,164.0,986.0,1007.0,0.675639382287,-0.253189281572,0.692486113654,0.000183116645303,0.0,0.01,-0.05,-9.17,-3.34,-0.9,21.87,4.75,55.881548840139644455909,0.0,0.0
1548840139675266981,198.0,205.0,373.0,331.0,49.0,146.0,987.0,1003.0,0.675639382287,-0.253189281572,0.692486113654,0.000183116645303,0.0,0.0,0.0,-9.18,-3.35,-0.84,21.87,4.75,55.881548840139660767078,0.0,0.0
1548840139691158056,229.0,208.0,396.0,337.0,16.0,112.0,995.0,1008.0,0.675639382287,-0.253189281572,0.692486113654,0.000183116645303,0.0,0.0,0.04,-9.18,-3.34,-0.8,22.56,4.38,55.061548840139677006959,0.0,0.0
1548840139707839012,226.0,163.0,402.0,339.0,144.0,167.0,995.0,1010.0,0.675639382287,-0.253189281572,0.692486113654,0.000183116645303,-0.01,0.0,0.06,-9.18,-3.35,-0.9,22.56,4.38,55.061548840139693623065,0.0,0.0
1548840139724560976,229.0,158.0,398.0,337.0,279.0,241.0,997.0,1009.0,0.675639382287,-0.253189281572,0.692486113654,0.000183116645303,0.0,0.01,0.0,-9.17,-3.33,-0.84,22.56,4.38,55.061548840139710028886,0.0,0.0
1548840139740988016,230.0,193.0,402.0,334.0,267.0,249.0,994.0,1009.0,0.675639382287,-0.253189281572,0.692486113654,0.000183116645303,0.01,0.0,0.04,-9.15,-3.36,-0.81,21.87,4.75,55.881548840139726366043,0.0,0.0
1548840139757713079,219.0,201.0,391.0,334.0,199.0,231.0,984.0,1006.0,0.675639382287,-0.253189281572,0.692486113654,0.000183116645303,0.0,0.0,0.0,-9.18,-3.34,-0.9,21.87,4.75,55.881548840139743156909,0.0,0.0
1548840139774261951,217.0,210.0,395.0,342.0,158.0,232.0,993.0,1008.0,0.675639382287,-0.253189281572,0.692486113654,0.000183116645303,-0.01,0.01,-0.02,-9.19,-3.33,-0.87,21.87,4.75,55.881548840139759780883,0.0,0.0
1548840139790908098,213.0,220.0,390.0,339.0,236.0,244.0,994.0,1007.0,0.675639382287,-0.253189281572,0.692486113654,0.000183116645303,0.0,0.0,0.03,-9.17,-3.35,-0.82,23.0,4.06,55.881548840139776293992,0.0,0.0
1548840139807151079,224.0,225.0,378.0,327.0,266.0,241.0,994.0,1011.0,0.675639382287,-0.253189281572,0.692486113654,0.000183116645303,0.0,0.0,0.01,-9.17,-3.35,-0.91,23.0,4.06,55.881548840139792989969,0.0,0.0
1548840139823597908,222.0,215.0,383.0,324.0,263.0,241.0,1000.0,1010.0,0.675639382287,-0.253189281572,0.692486113654,0.000183116645303,-0.01,0.02,-0.01,-9.18,-3.32,-0.87,23.0,4.06,55.881548840139809218883,0.0,0.0
1548840139840183973,216.0,215.0,375.0,319.0,143.0,101.0,985.0,1004.0,0.675639382287,-0.253189281572,0.692486113654,0.000183116645303,0.0,0.0,0.05,-9.18,-3.36,-0.79,23.0,4.38,57.51548840139825385093,0.0,0.0
1548840139856331110,214.0,209.0,384.0,334.0,28.0,194.0,995.0,1004.0,0.675639382287,-0.253189281572,0.692486113654,0.000183116645303,0.0,0.0,0.02,-9.18,-3.34,-0.9,23.0,4.38,57.51548840139842181921,0.0,0.0
1548840139872657060,203.0,211.0,389.0,339.0,266.0,241.0,988.0,1000.0,0.675639382287,-0.253189281572,0.692486113654,0.000183116645303,0.0,0.0,0.0,-9.17,-3.36,-0.84,23.0,4.38,57.51548840139858724117,0.0,0.0
1548840139889338970,178.0,210.0,359.0,342.0,293.0,244.0,1000.0,1011.0,0.675639382287,-0.253189281572,0.692486113654,0.000183116645303,-0.01,0.0,0.03,-9.16,-3.36,-0.82,22.56,5.06,55.51548840139875262022,0.0,0.0
1548840139906358003,180.0,213.0,363.0,344.0,268.0,240.0,998.0,1014.0,0.675639382287,-0.253189281572,0.692486113654,0.000183116645303,-0.03,0.01,0.04,-9.2,-3.33,-0.81,22.56,5.06,55.51548840139891638040,0.0,0.0
1548840139923059940,223.0,209.0,370.0,342.0,213.0,138.0,992.0,1009.0,0.675639382287,-0.253189281572,0.692486113654,0.000183116645303,0.0,0.0,0.0,-9.18,-3.35,-0.84,22.56,5.06,55.51548840139908226013,0.0,0.0
1548840139939313888,238.0,221.0,396.0,343.0,259.0,227.0,991.0,1013.0,0.675639382287,-0.253189281572,0.692486113654,0.000183116645303,0.0,0.01,0.04,-9.18,-3.34,-0.81,23.0,4.38,55.881548840139925566911,0.0,0.0
1548840139956022977,227.0,230.0,390.0,338.0,280.0,223.0,995.0,1016.0,0.675639382287,-0.253189281572,0.692486113654,0.000183116645303,0.0,0.0,-0.01,-9.18,-3.35,-0.86,23.0,4.38,55.881548840139941572904,0.0,0.0
1548840139972352981,217.0,230.0,391.0,346.0,271.0,238.0,991.0,1010.0,0.675639382287,-0.253189281572,0.692486113654,0.000183116645303,0.0,0.0,0.0,-9.16,-3.34,-0.85,23.0,4.38,55.881548840139957962036,0.0,0.0
1548840139988987922,216.0,212.0,386.0,343.0,261.0,170.0,992.0,1013.0,0.675639382287,-0.253189281572,0.692486113654,0.000183116645303,0.0,0.0,0.01,-9.18,-3.35,-0.83,23.75,5.06,56.251548840139974636077,0.0,0.0
1548840140005358934,222.0,208.0,393.0,329.0,202.0,76.0,998.0,1013.0,0.675639382287,-0.253189281572,0.692486113654,0.000183116645303,0.01,0.0,0.03,-9.15,-3.34,-0.81,23.75,5.06,56.251548840139991017103,0.0,0.0
1548840140021437883,223.0,195.0,416.0,337.0,68.0,225.0,991.0,1004.0,0.675639382287,-0.253189281572,0.692486113654,0.000183116645303,-0.01,0.01,0.0,-9.19,-3.34,-0.85,23.75,5.06,56.251548840140007256984,0.0,0.0
1548840140038032054,227.0,193.0,406.0,328.0,19.0,231.0,997.0,1010.0,0.675639382287,-0.253189281572,0.692486113654,0.000183116645303,0.0,0.01,0.03,-9.17,-3.34,-0.82,22.56,5.06,55.51548840140024132966,0.0,0.0
1548840140054533004,229.0,201.0,405.0,346.0,266.0,219.0,984.0,1003.0,0.675639382287,-0.253189281572,0.692486113654,0.000183116645303,0.0,0.0,0.04,-9.18,-3.36,-0.8,22.56,5.06,55.51548840140040465116,0.0,0.0
1548840140071504116,223.0,212.0,394.0,343.0,262.0,185.0,994.0,1005.0,0.675639382287,-0.253189281572,0.692486113654,0.000183116645303,0.0,0.0,0.02,-9.17,-3.34,-0.82,22.56,5.06,55.51548840140057307004,0.0,0.0
1548840140087244987,208.0,217.0,398.0,334.0,203.0,141.0,994.0,1008.0,0.675639382287,-0.253189281572,0.692486113654,0.000183116645303,0.0,0.01,0.06,-9.18,-3.33,-0.79,22.56,4.75,56.251548840140073206901,0.0,0.0
1548840140103398084,206.0,202.0,403.0,336.0,134.0,231.0,997.0,1013.0,0.675639382287,-0.253189281572,0.692486113654,0.000183116645303,0.01,0.0,0.03,-9.15,-3.34,-0.82,22.56,4.75,56.251548840140089380025,0.0,0.0
1548840140120110034,238.0,200.0,406.0,332.0,255.0,229.0,984.0,1007.0,0.675639382287,-0.253189281572,0.692486113654,0.000183116645303,0.01,0.0,-0.05,-9.16,-3.33,-0.84,22.56,4.75,56.251548840140106057882,0.0,0.0
1548840140136514902,253.0,205.0,371.0,327.0,266.0,151.0,998.0,1011.0,0.675639382287,-0.253189281572,0.692486113654,0.000183116645303,0.0,0.0,0.0,-9.16,-3.34,-0.84,22.56,4.75,56.251548840140122392892,0.0,0.0
1548840140152826070,233.0,211.0,371.0,331.0,267.0,127.0,985.0,1001.0,0.675639382287,-0.253189281572,0.692486113654,0.000183116645303,0.01,0.0,0.0,-9.16,-3.34,-0.86,21.06,5.06,56.251548840140138816118,0.0,0.0
1548840140169681072,209.0,209.0,394.0,330.0,262.0,223.0,994.0,1007.0,0.675639382287,-0.253189281572,0.692486113654,0.000183116645303,0.01,0.01,-0.05,-9.15,-3.36,-0.88,21.06,5.06,56.251548840140155935049,0.0,0.0
1548840140185945034,208.0,207.0,421.0,335.0,232.0,234.0,989.0,1004.0,0.675639382287,-0.253189281572,0.692486113654,0.000183116645303,0.0,-0.01,0.03,-9.17,-3.36,-0.82,21.06,5.06,56.251548840140172178983,0.0,0.0
1548840140202740907,199.0,201.0,416.0,340.0,117.0,224.0,998.0,1013.0,0.675639382287,-0.253189281572,0.692486113654,0.000183116645303,0.0,0.0,0.02,-9.16,-3.35,-0.82,22.56,4.75,54.691548840140188299894,0.0,0.0
1548840140219785928,201.0,215.0,355.0,349.0,202.0,229.0,983.0,998.0,0.675639382287,-0.253189281572,0.692486113654,0.000183116645303,0.0,0.0,-0.05,-9.16,-3.34,-0.87,22.56,4.75,54.691548840140205404996,0.0,0.0
1548840140235801935,226.0,214.0,343.0,338.0,218.0,168.0,993.0,1012.0,0.675639382287,-0.253189281572,0.692486113654,0.000183116645303,0.0,0.0,0.03,-9.18,-3.35,-0.81,22.56,4.75,54.691548840140221832036,0.0,0.0
1548840140252441883,239.0,214.0,378.0,333.0,113.0,202.0,995.0,1010.0,0.675639382287,-0.253189281572,0.692486113654,0.000183116645303,0.0,0.0,0.05,-9.17,-3.35,-0.79,23.75,4.75,55.881548840140238411903,0.0,0.0
1548840140269366025,237.0,207.0,409.0,340.0,221.0,238.0,987.0,1008.0,0.675639382287,-0.253189281572,0.692486113654,0.000183116645303,0.01,0.01,-0.04,-9.18,-3.33,-0.84,23.75,4.75,55.881548840140254867076,0.0,0.0
1548840140285506963,234.0,201.0,403.0,342.0,221.0,221.0,1003.0,1014.0,0.675639382287,-0.253189281572,0.692486113654,0.000183116645303,0.0,0.02,0.04,-9.17,-3.32,-0.8,23.75,4.75,55.881548840140271393060,0.0,0.0
1548840140302131891,234.0,207.0,370.0,345.0,170.0,79.0,993.0,1010.0,0.675639382287,-0.253189281572,0.692486113654,0.000183116645303,0.0,0.0,0.04,-9.17,-3.34,-0.8,23.0,5.06,56.251548840140288105010,0.0,0.0
1548840140318209886,197.0,203.0,363.0,339.0,264.0,216.0,993.0,1013.0,0.675639382287,-0.253189281572,0.692486113654,0.000183116645303,0.0,0.0,-0.04,-9.17,-3.35,-0.9,23.0,5.06,56.251548840140304405927,0.0,0.0
1548840140334546089,183.0,195.0,395.0,340.0,272.0,238.0,988.0,1004.0,0.675639382287,-0.253189281572,0.692486113654,0.000183116645303,0.0,0.01,0.04,-9.17,-3.33,-0.8,23.0,5.06,56.251548840140320755958,0.0,0.0
1548840140350970029,200.0,177.0,413.0,332.0,256.0,225.0,992.0,1008.0,0.675639382287,-0.253189281572,0.692486113654,0.000183116645303,0.0,0.01,0.03,-9.16,-3.34,-0.85,23.37,3.69,56.251548840140337096929,0.0,0.0
1548840140367413997,215.0,173.0,414.0,349.0,183.0,235.0,988.0,1003.0,0.675639382287,-0.253189281572,0.692486113654,0.000183116645303,0.0,0.0,-0.05,-9.17,-3.34,-0.9,23.37,3.69,56.251548840140353378057,0.0,0.0
1548840140384432077,215.0,208.0,415.0,345.0,173.0,234.0,994.0,1008.0,0.675639382287,-0.253189281572,0.692486113654,0.000183116645303,0.01,0.0,0.01,-9.16,-3.35,-0.83,23.37,3.69,56.251548840140369832038,0.0,0.0
1548840140400881052,230.0,215.0,413.0,343.0,225.0,230.0,996.0,1013.0,0.675639382287,-0.253189281572,0.692486113654,0.000183116645303,0.0,0.0,0.05,-9.18,-3.33,-0.8,23.37,4.75,56.251548840140386876106,0.0,0.0
1548840140417517900,232.0,214.0,408.0,340.0,205.0,230.0,993.0,1012.0,0.675639382287,-0.253189281572,0.692486113654,0.000183116645303,-0.02,0.02,-0.04,-9.19,-3.32,-0.89,23.37,4.75,56.251548840140403206110,0.0,0.0
1548840140433660030,232.0,211.0,403.0,338.0,252.0,196.0,996.0,1008.0,0.675639382287,-0.253189281572,0.692486113654,0.000183116645303,0.0,0.01,0.04,-9.16,-3.34,-0.81,23.37,4.75,56.251548840140419608116,0.0,0.0
1548840140449803113,240.0,214.0,405.0,331.0,263.0,90.0,994.0,1009.0,0.675639382287,-0.253189281572,0.692486113654,0.000183116645303,0.0,0.01,0.06,-9.18,-3.34,-0.78,22.56,4.75,55.51548840140436028003,0.0,0.0
1548840140465980052,236.0,220.0,409.0,332.0,219.0,220.0,992.0,1007.0,0.675639382287,-0.253189281572,0.692486113654,0.000183116645303,0.0,-0.01,-0.02,-9.17,-3.36,-0.87,22.56,4.75,55.51548840140452311992,0.0,0.0
1548840140482881069,235.0,217.0,403.0,341.0,225.0,225.0,995.0,1011.0,0.675639382287,-0.253189281572,0.692486113654,0.000183116645303,0.0,0.0,0.03,-9.17,-3.35,-0.81,22.56,4.75,55.51548840140468661069,0.0,0.0
1548840140499330043,235.0,221.0,403.0,344.0,146.0,206.0,988.0,1010.0,0.675639382287,-0.253189281572,0.692486113654,0.000183116645303,0.0,0.0,0.04,-9.17,-3.33,-0.8,23.0,4.38,55.881548840140485436916,0.0,0.0
1548840140515695095,186.0,220.0,399.0,341.0,240.0,229.0,999.0,1013.0,0.675639382287,-0.253189281572,0.692486113654,0.000183116645303,0.0,0.0,-0.04,-9.17,-3.36,-0.9,23.0,4.38,55.881548840140501770973,0.0,0.0
1548840140532237052,175.0,218.0,398.0,341.0,265.0,234.0,986.0,1001.0,0.675639382287,-0.253189281572,0.692486113654,0.000183116645303,-0.01,0.0,0.01,-9.19,-3.34,-0.83,23.0,4.38,55.881548840140518481969,0.0,0.0
1548840140548870086,196.0,151.0,378.0,337.0,121.0,232.0,998.0,1009.0,0.675639382287,-0.253189281572,0.692486113654,0.000183116645303,-0.01,0.01,0.01,-9.18,-3.33,-0.83,23.0,4.38,55.881548840140534872055,0.0,0.0
1548840140565185070,242.0,147.0,380.0,345.0,201.0,236.0,998.0,1015.0,0.675639382287,-0.253189281572,0.692486113654,0.000183116645303,0.0,0.01,-0.06,-9.17,-3.34,-0.91,23.0,4.38,55.881548840140551250934,0.0,0.0
1548840140581801891,244.0,188.0,384.0,338.0,132.0,156.0,999.0,1010.0,0.675639382287,-0.253189281572,0.692486113654,0.000183116645303,0.0,0.0,-0.01,-9.16,-3.34,-0.82,23.0,4.38,55.881548840140568046092,0.0,0.0
1548840140598604917,237.0,207.0,385.0,334.0,275.0,41.0,1000.0,1012.0,0.675639382287,-0.253189281572,0.692486113654,0.000183116645303,0.0,-0.01,0.04,-9.17,-3.37,-0.8,22.25,4.75,55.061548840140584317922,0.0,0.0
1548840140614618062,230.0,203.0,387.0,337.0,270.0,180.0,986.0,1002.0,0.675639382287,-0.253189281572,0.692486113654,0.000183116645303,-0.01,0.01,-0.03,-9.18,-3.33,-0.88,22.25,4.75,55.061548840140600692033,0.0,0.0
1548840140630999088,203.0,202.0,370.0,341.0,268.0,238.0,997.0,1007.0,0.675639382287,-0.253189281572,0.692486113654,0.000183116645303,0.0,0.0,-0.04,-9.16,-3.34,-0.82,22.25,4.75,55.061548840140617522954,0.0,0.0
1548840140647448062,188.0,207.0,372.0,341.0,179.0,121.0,994.0,1008.0,0.675639382287,-0.253189281572,0.692486113654,0.000183116645303,0.01,0.0,0.04,-9.15,-3.35,-0.8,21.87,4.38,56.691548840140633897066,0.0,0.0
1548840140664155960,191.0,110.0,392.0,335.0,55.0,208.0,996.0,1012.0,0.675639382287,-0.253189281572,0.692486113654,0.000183116645303,0.01,0.0,0.0,-9.15,-3.36,-0.85,21.87,4.38,56.691548840140650158882,0.0,0.0
1548840140680387973,233.0,78.0,401.0,334.0,252.0,230.0,997.0,1015.0,0.675639382287,-0.253189281572,0.692486113654,0.000183116645303,0.0,-0.01,0.01,-9.16,-3.33,-0.8,21.87,4.38,56.691548840140667226076,0.0,0.0
1548840140696825027,242.0,116.0,397.0,327.0,280.0,238.0,989.0,1008.0,0.675639382287,-0.253189281572,0.692486113654,0.000183116645303,0.0,0.01,0.04,-9.17,-3.33,-0.81,24.06,3.69,55.881548840140683196067,0.0,0.0
1548840140713572978,236.0,195.0,402.0,331.0,130.0,229.0,994.0,1007.0,0.675639382287,-0.253189281572,0.692486113654,0.000183116645303,0.0,0.0,-0.04,-9.17,-3.36,-0.89,24.06,3.69,55.881548840140699564933,0.0,0.0
1548840140730119943,241.0,203.0,406.0,339.0,26.0,81.0,990.0,1003.0,0.675639382287,-0.253189281572,0.692486113654,0.000183116645303,0.0,0.02,-0.01,-9.17,-3.32,-0.87,24.06,3.69,55.881548840140716713905,0.0,0.0
1548840140744375944,233.0,209.0,419.0,340.0,53.0,22.0,988.0,1003.0,0.675639382287,-0.253189281572,0.692486113654,0.000183116645303,0.0,0.01,0.04,-9.16,-3.33,-0.8,22.56,4.06,55.51548840140732858896,0.0,0.0
1548840140761094093,217.0,206.0,423.0,329.0,404.0,120.0,996.0,1011.0,0.675639382287,-0.253189281572,0.692486113654,0.000183116645303,0.0,0.0,0.02,-9.17,-3.35,-0.9,22.56,4.06,55.51548840140749443054,0.0,0.0
1548840140779563903,215.0,213.0,422.0,332.0,285.0,222.0,981.0,1000.0,0.675639382287,-0.253189281572,0.692486113654,0.000183116645303,0.01,0.0,-0.01,-9.16,-3.35,-0.87,22.56,4.06,55.51548840140766041994,0.0,0.0
1548840140796261072,235.0,223.0,404.0,329.0,258.0,204.0,994.0,1015.0,0.675639382287,-0.253189281572,0.692486113654,0.000183116645303,0.01,0.0,0.04,-9.15,-3.35,-0.8,23.0,4.75,55.51548840140782123088,0.0,0.0
1548840140813103914,237.0,228.0,413.0,345.0,216.0,76.0,988.0,1008.0,0.675639382287,-0.253189281572,0.692486113654,0.000183116645303,0.0,0.0,0.06,-9.16,-3.34,-0.89,23.0,4.75,55.51548840140798902034,0.0,0.0
1548840140829265117,232.0,214.0,382.0,342.0,134.0,206.0,991.0,1003.0,0.675639382287,-0.253189281572,0.692486113654,0.000183116645303,0.0,0.0,-0.03,-9.16,-3.34,-0.88,23.0,4.75,55.51548840140815792083,0.0,0.0
1548840140846160888,235.0,215.0,379.0,338.0,297.0,198.0,997.0,1010.0,0.675639382287,-0.253189281572,0.692486113654,0.000183116645303,0.01,0.01,0.05,-9.16,-3.33,-0.79,22.56,4.75,55.881548840140832027912,0.0,0.0
1548840140862467050,232.0,212.0,377.0,335.0,259.0,139.0,989.0,1007.0,0.675639382287,-0.253189281572,0.692486113654,0.000183116645303,0.0,0.0,0.06,-9.18,-3.36,-0.9,22.56,4.75,55.881548840140848867893,0.0,0.0
1548840140878998041,232.0,210.0,386.0,337.0,234.0,157.0,989.0,1006.0,0.675639382287,-0.253189281572,0.692486113654,0.000183116645303,0.0,0.01,0.0,-9.18,-3.33,-0.84,22.56,4.75,55.881548840140865164995,0.0,0.0
1548840140895591020,236.0,200.0,381.0,333.0,108.0,96.0,991.0,1003.0,0.675639382287,-0.253189281572,0.692486113654,0.000183116645303,0.0,0.0,0.04,-9.18,-3.35,-0.8,23.37,4.75,56.251548840140881704092,0.0,0.0
1548840140911402940,238.0,168.0,375.0,334.0,74.0,215.0,993.0,1009.0,0.675639382287,-0.253189281572,0.692486113654,0.000183116645303,-0.01,0.0,-0.01,-9.16,-3.35,-0.91,23.37,4.75,56.251548840140898256063,0.0,0.0
1548840140928162097,237.0,166.0,379.0,342.0,190.0,239.0,990.0,1008.0,0.675639382287,-0.253189281572,0.692486113654,0.000183116645303,0.0,0.01,0.0,-9.18,-3.33,-0.85,23.37,4.75,56.251548840140914685964,0.0,0.0
1548840140945162057,226.0,201.0,381.0,330.0,260.0,225.0,989.0,1005.0,0.675639382287,-0.253189281572,0.692486113654,0.000183116645303,0.0,0.01,0.05,-9.17,-3.34,-0.79,23.37,4.75,56.751548840140931185007,0.0,0.0
1548840140961697101,186.0,206.0,405.0,334.0,264.0,213.0,986.0,1002.0,0.675639382287,-0.253189281572,0.692486113654,0.000183116645303,0.0,0.0,0.0,-9.17,-3.35,-0.84,23.37,4.75,56.751548840140947634935,0.0,0.0
1548840140977860927,184.0,181.0,401.0,334.0,200.0,218.0,993.0,1006.0,0.675639382287,-0.253189281572,0.692486113654,0.000183116645303,0.0,0.01,0.0,-9.17,-3.34,-0.85,23.37,4.75,56.751548840140964165925,0.0,0.0
1548840140994021892,242.0,131.0,407.0,335.0,232.0,228.0,993.0,1015.0,0.675639382287,-0.253189281572,0.692486113654,0.000183116645303,0.0,-0.01,0.02,-9.16,-3.34,-0.8,22.25,4.75,55.881548840140980906009,0.0,0.0
1548840141010355949,260.0,134.0,416.0,339.0,279.0,236.0,993.0,1014.0,0.675639382287,-0.253189281572,0.692486113654,0.000183116645303,0.0,0.0,0.04,-9.18,-3.36,-0.8,22.25,4.75,55.881548840140996809005,0.0,0.0
1548840141026807069,243.0,200.0,405.0,340.0,251.0,245.0,989.0,1002.0,0.675639382287,-0.253189281572,0.692486113654,0.000183116645303,0.0,0.01,0.01,-9.17,-3.34,-0.83,22.25,4.75,55.881548840141013142108,0.0,0.0
1548840141043538093,239.0,208.0,400.0,310.0,256.0,125.0,993.0,1009.0,0.675639382287,-0.253189281572,0.692486113654,0.000183116645303,0.0,0.01,0.04,-9.17,-3.33,-0.79,22.25,5.06,55.51548840141029999971,0.0,0.0
1548840141060086011,233.0,214.0,402.0,312.0,166.0,180.0,982.0,995.0,0.675639382287,-0.253189281572,0.692486113654,0.000183116645303,0.0,0.01,0.04,-9.17,-3.34,-0.8,22.25,5.06,55.51548840141046468973,0.0,0.0
1548840141076632022,228.0,220.0,397.0,312.0,30.0,238.0,1000.0,1015.0,0.675639382287,-0.253189281572,0.692486113654,0.000183116645303,0.0,0.01,0.0,-9.17,-3.34,-0.84,22.25,5.06,55.51548840141062942981,0.0,0.0
1548840141093355894,222.0,221.0,403.0,336.0,234.0,243.0,994.0,1006.0,0.675639382287,-0.253189281572,0.692486113654,0.000183116645303,-0.01,0.01,0.03,-9.18,-3.33,-0.81,23.75,4.06,55.51548840141079739093,0.0,0.0
1548840141109796047,234.0,204.0,400.0,331.0,279.0,234.0,995.0,1010.0,0.675639382287,-0.253189281572,0.692486113654,0.000183116645303,0.0,0.02,0.0,-9.16,-3.32,-0.85,23.75,4.06,55.51548840141096179008,0.0,0.0
1548840141126127958,242.0,202.0,400.0,348.0,280.0,233.0,1000.0,1016.0,0.675639382287,-0.253189281572,0.692486113654,0.000183116645303,0.0,0.0,0.0,-9.18,-3.34,-0.85,23.75,4.06,55.51548840141112575054,0.0,0.0
1548840141143047094,237.0,209.0,396.0,344.0,169.0,232.0,1001.0,1014.0,0.675639382287,-0.253189281572,0.692486113654,0.000183116645303,-0.01,0.0,0.0,-9.19,-3.34,-0.84,22.25,4.75,56.751548840141129592895,0.0,0.0
1548840141159187078,232.0,218.0,402.0,342.0,306.0,213.0,999.0,1011.0,0.675639382287,-0.253189281572,0.692486113654,0.000183116645303,0.01,0.01,0.02,-9.15,-3.34,-0.82,22.25,4.75,56.751548840141145915031,0.0,0.0
1548840141175587892,237.0,218.0,402.0,342.0,290.0,228.0,997.0,1007.0,0.675639382287,-0.253189281572,0.692486113654,0.000183116645303,-0.01,0.01,-0.02,-9.19,-3.34,-0.87,22.25,4.75,56.751548840141162415981,0.0,0.0
1548840141192068099,206.0,215.0,380.0,338.0,259.0,122.0,998.0,1011.0,0.675639382287,-0.253189281572,0.692486113654,0.000183116645303,0.0,0.0,0.04,-9.18,-3.35,-0.8,22.25,4.75,56.751548840141178710937,0.0,0.0
1548840141208549976,204.0,221.0,367.0,333.0,270.0,45.0,997.0,1010.0,0.675639382287,-0.253189281572,0.692486113654,0.000183116645303,-0.02,0.01,0.04,-9.19,-3.33,-0.81,23.0,4.75,55.061548840141195435047,0.0,0.0
1548840141225137948,210.0,187.0,371.0,333.0,161.0,215.0,981.0,997.0,0.675639382287,-0.253189281572,0.692486113654,0.000183116645303,0.0,0.0,-0.07,-9.18,-3.34,-0.82,23.0,4.75,55.061548840141211730003,0.0,0.0
1548840141241452932,225.0,174.0,411.0,333.0,39.0,237.0,1002.0,1013.0,0.675639382287,-0.253189281572,0.692486113654,0.000183116645303,0.0,0.02,0.01,-9.17,-3.32,-0.83,23.0,4.75,55.061548840141228349924,0.0,0.0
1548840141258161067,229.0,191.0,415.0,329.0,41.0,217.0,985.0,1006.0,0.675639382287,-0.253189281572,0.692486113654,0.000183116645303,0.0,-0.01,0.04,-9.17,-3.36,-0.8,23.37,4.06,55.061548840141244708061,0.0,0.0
1548840141274605035,236.0,204.0,410.0,329.0,266.0,200.0,988.0,1010.0,0.675639382287,-0.253189281572,0.692486113654,0.000183116645303,0.0,0.0,-0.04,-9.16,-3.35,-0.85,23.37,4.06,55.061548840141261212110,0.0,0.0
1548840141291202068,241.0,208.0,413.0,328.0,263.0,229.0,997.0,1013.0,0.675639382287,-0.253189281572,0.692486113654,0.000183116645303,0.0,0.0,0.04,-9.17,-3.35,-0.8,23.37,4.06,55.061548840141277838945,0.0,0.0
1548840141307854890,218.0,165.0,412.0,331.0,174.0,219.0,990.0,1009.0,0.675639382287,-0.253189281572,0.692486113654,0.000183116645303,0.0,0.01,0.0,-9.17,-3.33,-0.85,22.56,4.06,55.881548840141294266939,0.0,0.0
1548840141323853015,209.0,162.0,403.0,339.0,292.0,231.0,1001.0,1014.0,0.675639382287,-0.253189281572,0.692486113654,0.000183116645303,0.0,0.01,-0.03,-9.14,-3.35,-0.86,22.56,4.06,55.881548840141310695886,0.0,0.0
1548840141340676069,208.0,188.0,396.0,335.0,282.0,171.0,986.0,999.0,0.675639382287,-0.253189281572,0.692486113654,0.000183116645303,0.0,0.0,0.02,-9.18,-3.34,-0.83,22.56,4.06,55.881548840141327267885,0.0,0.0
1548840141357397079,236.0,223.0,397.0,333.0,263.0,87.0,982.0,1009.0,0.675639382287,-0.253189281572,0.692486113654,0.000183116645303,0.01,0.01,0.03,-9.15,-3.34,-0.82,23.75,4.38,56.251548840141343588113,0.0,0.0
1548840141373337030,231.0,223.0,403.0,338.0,259.0,187.0,990.0,1001.0,0.675639382287,-0.253189281572,0.692486113654,0.000183116645303,0.0,-0.01,-0.03,-9.16,-3.36,-0.88,23.75,4.38,56.251548840141360122919,0.0,0.0
1548840141390033006,236.0,216.0,406.0,334.0,205.0,222.0,985.0,998.0,0.675639382287,-0.253189281572,0.692486113654,0.000183116645303,0.01,0.01,0.04,-9.16,-3.34,-0.8,23.75,4.38,56.251548840141376765012,0.0,0.0
1548840141406635999,235.0,215.0,409.0,327.0,272.0,223.0,997.0,1012.0,0.675639382287,-0.253189281572,0.692486113654,0.000183116645303,0.0,0.0,0.05,-9.16,-3.34,-0.82,22.56,4.75,55.881548840141393340110,0.0,0.0
1548840141422681093,239.0,211.0,408.0,325.0,217.0,218.0,986.0,1006.0,0.675639382287,-0.253189281572,0.692486113654,0.000183116645303,0.0,0.01,-0.03,-9.17,-3.34,-0.88,22.56,4.75,55.881548840141409707069,0.0,0.0
1548840141439542055,238.0,204.0,398.0,327.0,118.0,224.0,998.0,1011.0,0.675639382287,-0.253189281572,0.692486113654,0.000183116645303,0.0,0.0,0.02,-9.18,-3.35,-0.83,22.56,4.75,55.881548840141426284074,0.0,0.0
1548840141455848932,242.0,208.0,403.0,336.0,231.0,213.0,989.0,1011.0,0.675639382287,-0.253189281572,0.692486113654,0.000183116645303,0.0,0.0,0.04,-9.18,-3.34,-0.78,21.87,4.75,55.561548840141442981004,0.0,0.0
1548840141472313880,234.0,214.0,402.0,334.0,213.0,226.0,995.0,1012.0,0.675639382287,-0.253189281572,0.692486113654,0.000183116645303,0.0,0.0,-0.04,-9.18,-3.35,-0.89,21.87,4.75,55.561548840141459278106,0.0,0.0
1548840141489125967,233.0,215.0,410.0,349.0,288.0,217.0,997.0,1011.0,0.675639382287,-0.253189281572,0.692486113654,0.000183116645303,0.0,0.0,0.04,-9.16,-3.36,-0.8,21.87,4.75,55.561548840141475753068,0.0,0.0
1548840141505398035,221.0,217.0,410.0,349.0,269.0,94.0,988.0,1005.0,0.675639382287,-0.253189281572,0.692486113654,0.000183116645303,0.0,0.01,0.03,-9.16,-3.32,-0.83,21.87,5.06,56.251548840141492526054,0.0,0.0
1548840141521605968,210.0,216.0,384.0,344.0,276.0,216.0,996.0,1013.0,0.675639382287,-0.253189281572,0.692486113654,0.000183116645303,0.01,0.01,-0.04,-9.15,-3.33,-0.9,21.87,5.06,56.251548840141508790016,0.0,0.0
1548840141538491964,217.0,203.0,377.0,345.0,258.0,218.0,987.0,1009.0,0.675639382287,-0.253189281572,0.692486113654,0.000183116645303,0.0,0.01,0.03,-9.17,-3.33,-0.82,21.87,5.06,56.251548840141525041103,0.0,0.0
1548840141554677963,253.0,170.0,371.0,333.0,227.0,211.0,995.0,1011.0,0.675639382287,-0.253189281572,0.692486113654,0.000183116645303,0.0,0.0,0.04,-9.17,-3.36,-0.79,22.56,4.75,55.881548840141541883945,0.0,0.0
1548840141571085929,254.0,173.0,425.0,332.0,240.0,215.0,991.0,1007.0,0.675639382287,-0.253189281572,0.692486113654,0.000183116645303,0.0,0.0,-0.07,-9.17,-3.36,-0.92,22.56,4.75,55.881548840141558212041,0.0,0.0
1548840141587794065,230.0,206.0,416.0,324.0,182.0,238.0,999.0,1010.0,0.675639382287,-0.253189281572,0.692486113654,0.000183116645303,0.0,0.01,0.04,-9.18,-3.33,-0.81,22.56,4.75,55.881548840141574397087,0.0,0.0
1548840141604269027,229.0,209.0,412.0,343.0,41.0,227.0,996.0,1012.0,0.675639382287,-0.253189281572,0.692486113654,0.000183116645303,0.0,0.0,0.03,-9.16,-3.35,-0.81,22.25,4.75,54.751548840141591169118,0.0,0.0
1548840141620574951,224.0,214.0,405.0,344.0,182.0,225.0,991.0,1010.0,0.675639382287,-0.253189281572,0.692486113654,0.000183116645303,0.0,0.01,-0.04,-9.17,-3.34,-0.89,22.25,4.75,54.751548840141607637882,0.0,0.0
1548840141637379884,219.0,220.0,404.0,341.0,268.0,220.0,987.0,1005.0,0.675639382287,-0.253189281572,0.692486113654,0.000183116645303,0.0,0.01,0.01,-9.16,-3.35,-0.81,22.25,4.75,54.751548840141624470949,0.0,0.0
1548840141653223037,225.0,221.0,365.0,338.0,257.0,86.0,993.0,1005.0,0.675639382287,-0.253189281572,0.692486113654,0.000183116645303,0.0,0.0,0.04,-9.16,-3.35,-0.8,23.37,4.38,54.251548840141640489101,0.0,0.0
1548840141669974088,227.0,224.0,365.0,344.0,271.0,195.0,989.0,1005.0,0.675639382287,-0.253189281572,0.692486113654,0.000183116645303,0.0,0.01,-0.04,-9.17,-3.33,-0.89,23.37,4.38,54.251548840141656510114,0.0,0.0
1548840141686635971,227.0,224.0,384.0,327.0,276.0,242.0,999.0,1012.0,0.675639382287,-0.253189281572,0.692486113654,0.000183116645303,0.0,0.01,0.0,-9.17,-3.34,-0.8,23.37,4.38,54.251548840141673579931,0.0,0.0
1548840141702907085,238.0,229.0,393.0,323.0,244.0,216.0,992.0,1008.0,0.675639382287,-0.253189281572,0.692486113654,0.000183116645303,0.01,0.01,0.04,-9.16,-3.34,-0.8,22.25,5.5,53.881548840141690093040,0.0,0.0
1548840141719728946,236.0,225.0,396.0,336.0,266.0,222.0,991.0,1007.0,0.675639382287,-0.253189281572,0.692486113654,0.000183116645303,0.0,0.0,-0.06,-9.17,-3.35,-0.91,22.25,5.5,53.881548840141706506013,0.0,0.0
1548840141736262083,228.0,219.0,410.0,345.0,267.0,235.0,983.0,998.0,0.675639382287,-0.253189281572,0.692486113654,0.000183116645303,0.0,0.0,0.0,-9.14,-3.34,-0.81,22.25,5.5,53.881548840141723054885,0.0,0.0
1548840141752579927,125.0,194.0,407.0,342.0,272.0,224.0,994.0,1008.0,0.675639382287,-0.253189281572,0.692486113654,0.000183116645303,-0.01,0.0,0.05,-9.18,-3.35,-0.79,22.56,5.06,55.881548840141739495992,0.0,0.0
1548840141768781900,112.0,200.0,415.0,338.0,157.0,211.0,991.0,1011.0,0.675639382287,-0.253189281572,0.692486113654,0.000183116645303,-0.01,0.0,-0.06,-9.19,-3.35,-0.91,22.56,5.06,55.881548840141755994081,0.0,0.0
1548840141785655021,209.0,207.0,408.0,337.0,35.0,157.0,993.0,1008.0,0.675639382287,-0.253189281572,0.692486113654,0.000183116645303,0.0,0.0,-0.03,-9.16,-3.36,-0.79,22.56,5.06,55.881548840141772618055,0.0,0.0
1548840141801994085,238.0,207.0,402.0,333.0,346.0,35.0,996.0,1010.0,0.675639382287,-0.253189281572,0.692486113654,0.000183116645303,-0.03,0.0,0.04,-9.21,-3.36,-0.8,22.25,4.75,54.251548840141788990974,0.0,0.0
1548840141818334102,228.0,212.0,389.0,336.0,297.0,150.0,984.0,1006.0,0.675639382287,-0.253189281572,0.692486113654,0.000183116645303,0.0,0.0,-0.05,-9.16,-3.34,-0.9,22.25,4.75,54.251548840141805358886,0.0,0.0
1548840141835160017,209.0,215.0,387.0,332.0,268.0,224.0,992.0,1008.0,0.675639382287,-0.253189281572,0.692486113654,0.000183116645303,-0.01,0.01,0.0,-9.18,-3.34,-0.84,22.25,4.75,54.251548840141822082996,0.0,0.0
1548840141851409912,205.0,214.0,410.0,335.0,255.0,160.0,991.0,1009.0,0.675639382287,-0.253189281572,0.692486113654,0.000183116645303,0.01,0.0,0.04,-9.16,-3.36,-0.8,24.37,4.38,55.561548840141838429927,0.0,0.0
1548840141868223905,236.0,158.0,415.0,332.0,164.0,189.0,997.0,1013.0,0.675639382287,-0.253189281572,0.692486113654,0.000183116645303,-0.02,0.0,0.04,-9.16,-3.34,-0.89,24.37,4.38,55.561548840141855170965,0.0,0.0
1548840141884527921,238.0,150.0,412.0,342.0,185.0,228.0,1001.0,1012.0,0.675639382287,-0.253189281572,0.692486113654,0.000183116645303,0.0,0.01,0.0,-9.17,-3.33,-0.86,24.37,4.38,55.561548840141871553897,0.0,0.0
1548840141901180982,231.0,180.0,408.0,338.0,244.0,230.0,1000.0,1014.0,0.675639382287,-0.253189281572,0.692486113654,0.000183116645303,0.0,0.01,0.04,-9.17,-3.33,-0.81,22.56,5.06,54.751548840141887902021,0.0,0.0
1548840141917370080,223.0,214.0,420.0,343.0,266.0,230.0,986.0,1002.0,0.675639382287,-0.253189281572,0.692486113654,0.000183116645303,0.0,0.01,0.03,-9.16,-3.34,-0.9,22.56,5.06,54.751548840141904557943,0.0,0.0
1548840141933540105,230.0,218.0,387.0,335.0,261.0,153.0,993.0,1007.0,0.675639382287,-0.253189281572,0.692486113654,0.000183116645303,-0.02,0.01,0.0,-9.19,-3.33,-0.85,22.56,5.06,54.751548840141920535087,0.0,0.0
1548840141950455904,225.0,230.0,381.0,335.0,88.0,47.0,987.0,1003.0,0.675639382287,-0.253189281572,0.692486113654,0.000183116645303,0.0,0.0,0.05,-9.17,-3.35,-0.79,22.25,5.06,55.561548840141937411069,0.0,0.0
1548840141965049028,223.0,230.0,370.0,326.0,49.0,52.0,991.0,1004.0,0.675639382287,-0.253189281572,0.692486113654,0.000183116645303,0.0,0.0,0.03,-9.16,-3.34,-0.89,22.25,5.06,55.561548840141954111099,0.0,0.0
1548840141981695890,228.0,218.0,347.0,328.0,288.0,223.0,994.0,1011.0,0.675639382287,-0.253189281572,0.692486113654,0.000183116645303,0.01,0.01,-0.05,-9.16,-3.33,-0.9,22.25,5.06,55.561548840141970439910,0.0,0.0
1548840141999730110,233.0,213.0,345.0,333.0,270.0,213.0,1000.0,1013.0,0.675639382287,-0.253189281572,0.692486113654,0.000183116645303,0.0,0.0,0.05,-9.18,-3.33,-0.79,23.0,4.75,55.51548840141986763000,0.0,0.0
1548840142016645908,232.0,218.0,383.0,329.0,242.0,212.0,991.0,1006.0,0.675639382287,-0.253189281572,0.692486113654,0.000183116645303,0.0,0.01,0.07,-9.17,-3.33,-0.78,23.0,4.75,55.51548840142003577947,0.0,0.0
1548840142032929897,231.0,217.0,385.0,331.0,104.0,127.0,994.0,1009.0,0.675639382287,-0.253189281572,0.692486113654,0.000183116645303,0.01,0.01,0.03,-9.16,-3.33,-0.82,23.0,4.75,55.51548840142019850969,0.0,0.0
1548840142049341917,237.0,221.0,393.0,343.0,163.0,204.0,991.0,1007.0,0.675639382287,-0.253189281572,0.692486113654,0.000183116645303,0.0,0.0,0.04,-9.18,-3.34,-0.8,23.75,3.69,54.751548840142036334991,0.0,0.0
1548840142065733909,165.0,215.0,409.0,347.0,263.0,128.0,995.0,1012.0,0.675639382287,-0.253189281572,0.692486113654,0.000183116645303,0.0,0.01,0.04,-9.17,-3.34,-0.8,23.75,3.69,54.751548840142053016901,0.0,0.0
1548840142082072973,153.0,219.0,410.0,339.0,271.0,206.0,988.0,1006.0,0.675639382287,-0.253189281572,0.692486113654,0.000183116645303,0.0,0.01,0.0,-9.17,-3.33,-0.86,23.75,3.69,54.751548840142069252967,0.0,0.0
1548840142098206996,189.0,206.0,392.0,328.0,223.0,63.0,990.0,1005.0,0.675639382287,-0.253189281572,0.692486113654,0.000183116645303,0.01,0.01,0.03,-9.16,-3.33,-0.81,21.5,4.38,57.061548840142085796117,0.0,0.0
1548840142114556074,231.0,198.0,397.0,328.0,93.0,95.0,982.0,1006.0,0.675639382287,-0.253189281572,0.692486113654,0.000183116645303,0.0,0.0,0.01,-9.18,-3.35,-0.84,21.5,4.38,57.061548840142101931095,0.0,0.0
1548840142129172086,226.0,189.0,395.0,327.0,91.0,212.0,991.0,1006.0,0.675639382287,-0.253189281572,0.692486113654,0.000183116645303,0.0,0.02,0.0,-9.18,-3.32,-0.86,21.5,4.38,57.061548840142118360996,0.0,0.0
1548840142147582054,233.0,214.0,403.0,329.0,223.0,188.0,995.0,1010.0,0.675639382287,-0.253189281572,0.692486113654,0.000183116645303,0.0,0.0,0.03,-9.16,-3.36,-0.81,23.75,4.75,57.061548840142135080099,0.0,0.0
1548840142164238929,236.0,221.0,404.0,339.0,286.0,171.0,995.0,1008.0,0.675639382287,-0.253189281572,0.692486113654,0.000183116645303,0.0,0.0,0.03,-9.18,-3.35,-0.82,23.75,4.75,57.061548840142151366949,0.0,0.0
1548840142180603981,227.0,209.0,361.0,341.0,213.0,168.0,989.0,1011.0,0.675639382287,-0.253189281572,0.692486113654,0.000183116645303,0.0,0.0,0.01,-9.17,-3.34,-0.84,23.75,4.75,57.061548840142167702913,0.0,0.0
1548840142196923017,226.0,208.0,360.0,341.0,88.0,204.0,993.0,1011.0,0.675639382287,-0.253189281572,0.692486113654,0.000183116645303,0.0,0.0,0.02,-9.17,-3.34,-0.83,23.0,4.06,56.751548840142184537887,0.0,0.0
1548840142213378906,227.0,209.0,370.0,343.0,164.0,221.0,983.0,1006.0,0.675639382287,-0.253189281572,0.692486113654,0.000183116645303,0.0,0.01,0.04,-9.16,-3.34,-0.8,23.0,4.06,56.751548840142200861930,0.0,0.0
1548840142230062007,231.0,229.0,392.0,347.0,256.0,229.0,990.0,1004.0,0.675639382287,-0.253189281572,0.692486113654,0.000183116645303,0.0,0.01,0.0,-9.17,-3.34,-0.85,23.0,4.06,56.751548840142217222929,0.0,0.0
1548840142246433973,235.0,235.0,388.0,339.0,258.0,191.0,993.0,1009.0,0.675639382287,-0.253189281572,0.692486113654,0.000183116645303,0.0,0.0,0.02,-9.16,-3.34,-0.82,22.25,4.06,56.381548840142234006881,0.0,0.0
1548840142263140916,227.0,221.0,374.0,346.0,208.0,136.0,984.0,997.0,0.675639382287,-0.253189281572,0.692486113654,0.000183116645303,0.0,0.0,-0.01,-9.17,-3.35,-0.86,22.25,4.06,56.381548840142250571966,0.0,0.0
1548840142279232025,225.0,213.0,366.0,324.0,114.0,209.0,999.0,1010.0,0.675639382287,-0.253189281572,0.692486113654,0.000183116645303,0.0,-0.02,-0.05,-9.18,-3.34,-0.82,22.25,4.06,56.381548840142266994953,0.0,0.0
1548840142295949935,231.0,215.0,358.0,322.0,32.0,235.0,986.0,1004.0,0.675639382287,-0.253189281572,0.692486113654,0.000183116645303,0.0,0.0,0.02,-9.17,-3.35,-0.83,22.25,4.06,56.381548840142283732891,0.0,0.0
1548840142312273979,247.0,221.0,339.0,323.0,233.0,227.0,1002.0,1020.0,0.675639382287,-0.253189281572,0.692486113654,0.000183116645303,-0.01,0.0,0.02,-9.19,-3.34,-0.82,22.56,5.06,55.881548840142299802064,0.0,0.0
1548840142329077005,241.0,220.0,349.0,350.0,298.0,243.0,992.0,1003.0,0.675639382287,-0.253189281572,0.692486113654,0.000183116645303,0.0,0.0,-0.05,-9.16,-3.35,-0.87,22.56,5.06,55.881548840142316514968,0.0,0.0
1548840142345431089,234.0,212.0,351.0,349.0,221.0,107.0,1002.0,1015.0,0.675639382287,-0.253189281572,0.692486113654,0.000183116645303,0.0,0.0,0.06,-9.16,-3.34,-0.79,22.56,5.06,55.881548840142332799911,0.0,0.0
1548840142362423896,233.0,210.0,356.0,350.0,127.0,206.0,998.0,1010.0,0.675639382287,-0.253189281572,0.692486113654,0.000183116645303,0.0,0.01,0.03,-9.18,-3.33,-0.82,22.56,5.06,56.751548840142349509954,0.0,0.0
1548840142378979921,168.0,210.0,374.0,342.0,292.0,228.0,997.0,1012.0,0.675639382287,-0.253189281572,0.692486113654,0.000183116645303,-0.02,0.0,-0.05,-9.17,-3.34,-0.83,22.56,5.06,56.751548840142366003990,0.0,0.0
1548840142394995927,124.0,211.0,404.0,345.0,273.0,126.0,994.0,1011.0,0.675639382287,-0.253189281572,0.692486113654,0.000183116645303,0.02,0.0,0.04,-9.15,-3.36,-0.81,22.56,5.06,56.751548840142382415056,0.0,0.0
1548840142411943912,141.0,214.0,405.0,344.0,263.0,207.0,995.0,1007.0,0.675639382287,-0.253189281572,0.692486113654,0.000183116645303,0.0,0.0,0.08,-9.17,-3.36,-0.77,22.56,5.5,56.251548840142398855924,0.0,0.0
1548840142428612947,227.0,189.0,380.0,347.0,244.0,235.0,993.0,1010.0,0.675639382287,-0.253189281572,0.692486113654,0.000183116645303,0.01,0.0,-0.03,-9.15,-3.32,-0.86,22.56,5.5,56.251548840142415869951,0.0,0.0
1548840142444852113,229.0,183.0,376.0,330.0,236.0,233.0,996.0,1008.0,0.675639382287,-0.253189281572,0.692486113654,0.000183116645303,0.0,0.0,0.02,-9.18,-3.35,-0.82,22.56,5.5,56.251548840142432301044,0.0,0.0
1548840142461668968,229.0,202.0,390.0,321.0,213.0,225.0,998.0,1008.0,0.675639382287,-0.253189281572,0.692486113654,0.000183116645303,0.0,0.0,-0.01,-9.17,-3.35,-0.86,23.37,2.88,56.751548840142448771953,0.0,0.0
1548840142477886915,227.0,215.0,417.0,338.0,77.0,221.0,992.0,1007.0,0.675639382287,-0.253189281572,0.692486113654,0.000183116645303,-0.02,0.0,-0.03,-9.19,-3.35,-0.89,23.37,2.88,56.751548840142465378046,0.0,0.0
1548840142494700908,207.0,215.0,410.0,341.0,237.0,216.0,990.0,1005.0,0.675639382287,-0.253189281572,0.692486113654,0.000183116645303,0.0,0.01,0.04,-9.16,-3.33,-0.81,23.37,2.88,56.751548840142481750011,0.0,0.0
1548840142510955095,175.0,226.0,366.0,341.0,256.0,95.0,994.0,1010.0,0.675639382287,-0.253189281572,0.692486113654,0.000183116645303,0.0,0.0,0.05,-9.16,-3.34,-0.81,23.0,4.38,56.251548840142498486042,0.0,0.0
1548840142527370929,180.0,231.0,364.0,347.0,106.0,212.0,992.0,1011.0,0.675639382287,-0.253189281572,0.692486113654,0.000183116645303,-0.01,0.0,-0.03,-9.18,-3.34,-0.88,23.0,4.38,56.251548840142514708995,0.0,0.0
1548840142543754100,232.0,206.0,376.0,344.0,274.0,163.0,990.0,1009.0,0.675639382287,-0.253189281572,0.692486113654,0.000183116645303,-0.01,0.01,0.02,-9.18,-3.33,-0.83,23.0,4.38,56.251548840142531183958,0.0,0.0
1548840142560429096,240.0,201.0,392.0,341.0,289.0,57.0,996.0,1014.0,0.675639382287,-0.253189281572,0.692486113654,0.000183116645303,0.0,-0.01,0.07,-9.15,-3.35,-0.82,21.5,4.75,55.881548840142547875881,0.0,0.0
1548840142576301097,215.0,197.0,395.0,349.0,272.0,138.0,980.0,998.0,0.675639382287,-0.253189281572,0.692486113654,0.000183116645303,0.0,-0.01,0.0,-9.18,-3.36,-0.86,21.5,4.75,55.881548840142564281940,0.0,0.0
1548840142593314886,213.0,209.0,405.0,326.0,245.0,212.0,991.0,1008.0,0.675639382287,-0.253189281572,0.692486113654,0.000183116645303,0.0,0.0,0.05,-9.17,-3.35,-0.79,21.5,4.75,55.881548840142580625057,0.0,0.0
1548840142609659910,213.0,211.0,415.0,317.0,121.0,223.0,986.0,1004.0,0.675639382287,-0.253189281572,0.692486113654,0.000183116645303,-0.01,0.01,0.07,-9.14,-3.33,-0.79,21.5,4.38,54.691548840142597570896,0.0,0.0
1548840142626389026,217.0,216.0,368.0,309.0,252.0,218.0,991.0,1006.0,0.675639382287,-0.253189281572,0.692486113654,0.000183116645303,-0.01,0.0,-0.05,-9.19,-3.34,-0.9,21.5,4.38,54.691548840142613706111,0.0,0.0
1548840142642875909,217.0,219.0,340.0,343.0,132.0,230.0,994.0,1005.0,0.675639382287,-0.253189281572,0.692486113654,0.000183116645303,0.01,0.01,0.01,-9.15,-3.33,-0.83,21.5,4.38,54.691548840142630192041,0.0,0.0
1548840142658888101,230.0,221.0,345.0,338.0,98.0,141.0,989.0,1014.0,0.675639382287,-0.253189281572,0.692486113654,0.000183116645303,0.0,0.0,0.09,-9.18,-3.34,-0.76,22.56,4.75,55.51548840142646991968,0.0,0.0
1548840142675721883,227.0,216.0,384.0,342.0,247.0,169.0,991.0,1010.0,0.675639382287,-0.253189281572,0.692486113654,0.000183116645303,0.0,0.0,-0.06,-9.16,-3.36,-0.91,22.56,4.75,55.51548840142662842988,0.0,0.0
1548840142691910982,232.0,214.0,385.0,344.0,262.0,111.0,992.0,1007.0,0.675639382287,-0.253189281572,0.692486113654,0.000183116645303,0.0,0.0,-0.02,-9.17,-3.32,-0.81,22.56,4.75,55.51548840142679172039,0.0,0.0
1548840142708839893,230.0,193.0,400.0,339.0,355.0,96.0,1000.0,1014.0,0.675639382287,-0.253189281572,0.692486113654,0.000183116645303,0.0,-0.01,0.01,-9.17,-3.36,-0.83,23.0,4.75,54.751548840142696305990,0.0,0.0
1548840142725166082,233.0,190.0,416.0,345.0,243.0,201.0,993.0,1009.0,0.675639382287,-0.253189281572,0.692486113654,0.000183116645303,0.0,0.02,-0.04,-9.17,-3.32,-0.89,23.0,4.75,54.751548840142712644100,0.0,0.0
1548840142741575956,209.0,203.0,414.0,338.0,287.0,203.0,996.0,1014.0,0.675639382287,-0.253189281572,0.692486113654,0.000183116645303,0.01,0.0,-0.01,-9.16,-3.35,-0.8,23.0,4.75,54.751548840142729429006,0.0,0.0
1548840142758306026,205.0,208.0,413.0,341.0,245.0,223.0,998.0,1013.0,0.675639382287,-0.253189281572,0.692486113654,0.000183116645303,0.0,0.01,0.05,-9.17,-3.33,-0.79,22.25,4.75,55.561548840142745702981,0.0,0.0
1548840142774810075,221.0,215.0,413.0,339.0,232.0,218.0,983.0,1005.0,0.675639382287,-0.253189281572,0.692486113654,0.000183116645303,0.0,0.02,-0.02,-9.17,-3.32,-0.87,22.25,4.75,55.561548840142762270927,0.0,0.0
1548840142791029930,225.0,215.0,394.0,333.0,277.0,222.0,998.0,1009.0,0.675639382287,-0.253189281572,0.692486113654,0.000183116645303,-0.05,0.04,0.04,-9.14,-3.32,-0.85,22.25,4.75,55.561548840142779046058,0.0,0.0
1548840142807881116,223.0,227.0,401.0,332.0,211.0,227.0,990.0,1011.0,0.675578343405,-0.253128242691,0.692547152536,0.000183116645303,-0.02,0.0,0.03,-9.19,-3.34,-0.81,23.0,4.06,55.061548840142795217990,0.0,0.0
1548840142824403047,183.0,221.0,392.0,330.0,69.0,158.0,993.0,1009.0,0.675639382287,-0.253128242691,0.692486113654,0.000244155527071,0.02,0.0,-0.07,-9.15,-3.35,-0.93,23.0,4.06,55.061548840142811642885,0.0,0.0
1548840142840223073,181.0,224.0,382.0,349.0,148.0,210.0,995.0,1010.0,0.675639382287,-0.253128242691,0.692486113654,0.000244155527071,0.0,-0.06,-0.05,-9.16,-3.29,-0.78,23.0,4.06,55.061548840142828376054,0.0,0.0
1548840142857100963,234.0,217.0,373.0,345.0,301.0,79.0,996.0,1008.0,0.675639382287,-0.253250320454,0.692425074773,0.000244155527071,-0.02,0.02,0.06,-9.2,-3.32,-0.79,23.37,4.75,55.881548840142844779014,0.0,0.0
1548840142873639106,250.0,206.0,395.0,341.0,294.0,220.0,984.0,1008.0,0.675639382287,-0.253250320454,0.692486113654,0.000244155527071,-0.02,0.03,-0.06,-9.19,-3.31,-0.91,23.37,4.75,55.881548840142861176967,0.0,0.0
1548840142889803886,242.0,205.0,401.0,333.0,228.0,239.0,996.0,1009.0,0.675639382287,-0.253250320454,0.692486113654,0.000244155527071,0.0,0.0,-0.01,-9.16,-3.35,-0.87,23.37,4.75,55.881548840142877870082,0.0,0.0
1548840142906666994,234.0,212.0,399.0,328.0,243.0,224.0,993.0,1008.0,0.675639382287,-0.253250320454,0.692486113654,0.000244155527071,0.01,-0.01,0.05,-9.16,-3.37,-0.79,22.25,4.38,54.251548840142894263029,0.0,0.0
1548840142922810077,234.0,217.0,397.0,342.0,271.0,226.0,991.0,1004.0,0.675639382287,-0.253250320454,0.692486113654,0.000244155527071,0.0,0.0,0.05,-9.18,-3.34,-0.87,22.25,4.38,54.251548840142910693883,0.0,0.0
1548840142939321994,216.0,216.0,394.0,341.0,270.0,231.0,986.0,1004.0,0.675639382287,-0.253250320454,0.692486113654,0.000244155527071,0.0,0.0,-0.01,-9.17,-3.35,-0.87,22.25,4.38,54.251548840142927328109,0.0,0.0
1548840142955883026,210.0,217.0,371.0,336.0,263.0,219.0,995.0,1009.0,0.675639382287,-0.253250320454,0.692486113654,0.000244155527071,0.01,0.01,0.06,-9.16,-3.33,-0.78,22.25,5.06,56.251548840142943681955,0.0,0.0
1548840142973062992,231.0,222.0,371.0,334.0,239.0,217.0,989.0,1008.0,0.675639382287,-0.253250320454,0.692486113654,0.000244155527071,0.0,0.01,0.07,-9.15,-3.36,-0.9,22.25,5.06,56.251548840142960465908,0.0,0.0
1548840142988878011,240.0,195.0,371.0,334.0,185.0,161.0,994.0,1009.0,0.675639382287,-0.253250320454,0.692486113654,0.000244155527071,0.0,0.0,0.02,-9.17,-3.34,-0.82,22.25,5.06,56.251548840142976950883,0.0,0.0
1548840143005295038,244.0,195.0,401.0,334.0,66.0,115.0,1000.0,1014.0,0.675639382287,-0.253250320454,0.692486113654,0.000244155527071,0.0,0.01,0.05,-9.17,-3.33,-0.8,23.0,4.06,57.561548840142993093013,0.0,0.0
1548840143021811962,231.0,199.0,404.0,339.0,199.0,232.0,994.0,1011.0,0.675639382287,-0.253250320454,0.692486113654,0.000244155527071,0.0,0.01,0.1,-9.17,-3.34,-0.85,23.0,4.06,57.561548840143009876966,0.0,0.0
1548840143038429975,232.0,203.0,386.0,342.0,262.0,240.0,994.0,1010.0,0.675639382287,-0.253250320454,0.692486113654,0.000244155527071,0.0,-0.01,0.02,-9.16,-3.36,-0.82,23.0,4.06,57.561548840143026412010,0.0,0.0
1548840143055172920,227.0,206.0,383.0,342.0,269.0,232.0,996.0,1011.0,0.675639382287,-0.253250320454,0.692486113654,0.000244155527071,0.02,0.0,0.04,-9.15,-3.35,-0.8,22.56,3.69,55.881548840143042553901,0.0,0.0
1548840143071554899,224.0,219.0,383.0,338.0,269.0,158.0,989.0,1010.0,0.675639382287,-0.253250320454,0.692486113654,0.000244155527071,0.01,0.0,0.01,-9.17,-3.34,-0.9,22.56,3.69,55.881548840143059274911,0.0,0.0
1548840143088041067,220.0,218.0,412.0,345.0,231.0,192.0,992.0,1005.0,0.675639382287,-0.253250320454,0.692486113654,0.000244155527071,0.01,0.0,0.0,-9.15,-3.35,-0.86,22.56,3.69,55.881548840143075678110,0.0,0.0
1548840143104662895,232.0,227.0,410.0,341.0,247.0,223.0,997.0,1013.0,0.675639382287,-0.253250320454,0.692486113654,0.000244155527071,0.0,0.0,0.06,-9.17,-3.35,-0.77,23.0,4.75,56.251548840143091963052,0.0,0.0
1548840143120878934,232.0,230.0,389.0,341.0,245.0,227.0,987.0,1008.0,0.675639382287,-0.253250320454,0.692486113654,0.000244155527071,0.0,0.0,0.04,-9.17,-3.35,-0.81,23.0,4.75,56.251548840143108814001,0.0,0.0
1548840143137475013,229.0,222.0,380.0,339.0,259.0,121.0,997.0,1006.0,0.675639382287,-0.253250320454,0.692486113654,0.000244155527071,0.0,0.0,-0.03,-9.18,-3.35,-0.88,23.0,4.75,56.251548840143125082015,0.0,0.0
1548840143153821945,232.0,209.0,381.0,317.0,258.0,21.0,989.0,1010.0,0.675639382287,-0.253250320454,0.692486113654,0.000244155527071,0.0,0.0,0.06,-9.15,-3.35,-0.78,21.87,4.75,55.561548840143141868114,0.0,0.0
1548840143170238018,229.0,206.0,405.0,307.0,96.0,183.0,994.0,1005.0,0.675639382287,-0.253250320454,0.692486113654,0.000244155527071,0.01,0.0,0.07,-9.16,-3.34,-0.77,21.87,4.75,55.561548840143158209085,0.0,0.0
1548840143186445951,234.0,210.0,402.0,309.0,42.0,241.0,1001.0,1007.0,0.675639382287,-0.253250320454,0.692486113654,0.000244155527071,0.01,0.0,0.0,-9.15,-3.35,-0.85,21.87,4.75,55.561548840143174551963,0.0,0.0
1548840143203185081,236.0,215.0,412.0,314.0,276.0,231.0,994.0,1008.0,0.675639382287,-0.253250320454,0.692486113654,0.000244155527071,0.0,0.01,0.02,-9.17,-3.33,-0.83,22.56,4.38,55.881548840143191214084,0.0,0.0
1548840143219604015,235.0,216.0,414.0,318.0,273.0,227.0,993.0,1003.0,0.675639382287,-0.253250320454,0.692486113654,0.000244155527071,0.0,0.0,0.09,-9.16,-3.35,-0.76,22.56,4.38,55.881548840143207660913,0.0,0.0
1548840143236682891,229.0,223.0,405.0,332.0,185.0,87.0,989.0,1005.0,0.675639382287,-0.253250320454,0.692486113654,0.000244155527071,0.0,0.01,0.02,-9.17,-3.33,-0.83,22.56,4.38,55.881548840143223965883,0.0,0.0
1548840143252475023,185.0,229.0,393.0,339.0,129.0,210.0,991.0,1008.0,0.675639382287,-0.253250320454,0.692486113654,0.000244155527071,0.0,0.0,0.03,-9.17,-3.35,-0.82,22.56,4.38,55.561548840143240752935,0.0,0.0
1548840143269175052,160.0,202.0,387.0,338.0,269.0,154.0,993.0,1007.0,0.675639382287,-0.253250320454,0.692486113654,0.000244155527071,0.0,0.01,0.01,-9.17,-3.33,-0.83,22.56,4.38,55.561548840143257136106,0.0,0.0
1548840143286179065,180.0,204.0,379.0,340.0,269.0,204.0,987.0,1008.0,0.675639382287,-0.253250320454,0.692486113654,0.000244155527071,0.0,0.0,-0.02,-9.17,-3.35,-0.87,22.56,4.38,55.561548840143273495912,0.0,0.0
1548840143302177906,234.0,179.0,375.0,345.0,269.0,52.0,989.0,1006.0,0.675639382287,-0.253250320454,0.692486113654,0.000244155527071,-0.01,0.0,0.0,-9.18,-3.34,-0.84,22.56,4.06,55.561548840143290172100,0.0,0.0
1548840143318505048,236.0,162.0,382.0,326.0,220.0,42.0,990.0,1012.0,0.675639382287,-0.253250320454,0.692486113654,0.000244155527071,0.0,0.01,0.05,-9.17,-3.33,-0.79,22.56,4.06,55.561548840143306494951,0.0,0.0
1548840143335308074,230.0,170.0,397.0,331.0,98.0,203.0,990.0,1007.0,0.675639382287,-0.253250320454,0.692486113654,0.000244155527071,0.01,0.0,-0.05,-9.16,-3.34,-0.86,22.56,4.06,55.561548840143322879076,0.0,0.0
1548840143351330041,232.0,219.0,388.0,325.0,88.0,186.0,989.0,1009.0,0.675639382287,-0.253250320454,0.692486113654,0.000244155527071,0.0,0.01,0.0,-9.17,-3.33,-0.84,22.56,4.06,55.561548840143339833021,0.0,0.0
1548840143368164062,220.0,223.0,354.0,338.0,117.0,125.0,992.0,1009.0,0.675639382287,-0.253250320454,0.692486113654,0.000244155527071,0.0,0.02,0.05,-9.18,-3.32,-0.8,22.56,4.75,55.881548840143356014013,0.0,0.0
1548840143384757041,200.0,221.0,359.0,345.0,260.0,87.0,981.0,1001.0,0.675639382287,-0.253250320454,0.692486113654,0.000244155527071,0.0,0.0,-0.02,-9.18,-3.33,-0.85,22.56,4.75,55.881548840143372812986,0.0,0.0
1548840143400973081,204.0,218.0,374.0,343.0,195.0,96.0,998.0,1014.0,0.675639382287,-0.253250320454,0.692486113654,0.000244155527071,0.01,0.0,0.01,-9.16,-3.35,-0.83,22.56,4.75,55.881548840143389261007,0.0,0.0
1548840143418055057,245.0,214.0,410.0,343.0,183.0,211.0,996.0,1011.0,0.675639382287,-0.253250320454,0.692486113654,0.000244155527071,-0.01,0.0,0.06,-9.18,-3.35,-0.79,22.25,4.75,55.561548840143405524969,0.0,0.0
1548840143434735059,242.0,172.0,412.0,345.0,285.0,221.0,988.0,1009.0,0.675639382287,-0.253250320454,0.692486113654,0.000244155527071,0.0,0.0,-0.04,-9.16,-3.33,-0.84,22.25,4.75,55.561548840143422436952,0.0,0.0
1548840143450400114,226.0,167.0,389.0,347.0,278.0,164.0,994.0,1008.0,0.675639382287,-0.253250320454,0.692486113654,0.000244155527071,0.0,0.0,0.05,-9.18,-3.34,-0.8,22.25,4.75,55.561548840143438569068,0.0,0.0
1548840143466579914,222.0,204.0,387.0,341.0,269.0,147.0,991.0,1006.0,0.675639382287,-0.253250320454,0.692486113654,0.000244155527071,0.0,0.0,0.01,-9.16,-3.36,-0.83,23.0,4.38,55.561548840143455087900,0.0,0.0
1548840143483212947,225.0,204.0,380.0,328.0,187.0,230.0,993.0,1003.0,0.675639382287,-0.253250320454,0.692486113654,0.000244155527071,0.0,-0.01,-0.05,-9.16,-3.36,-0.85,23.0,4.38,55.561548840143471358060,0.0,0.0
1548840143499707937,245.0,204.0,379.0,329.0,237.0,228.0,990.0,1007.0,0.675639382287,-0.253250320454,0.692486113654,0.000244155527071,0.0,0.01,0.02,-9.18,-3.33,-0.82,23.0,4.38,55.561548840143487571001,0.0,0.0
1548840143516071081,238.0,200.0,379.0,329.0,182.0,237.0,998.0,1010.0,0.675639382287,-0.253250320454,0.692486113654,0.000244155527071,0.0,0.0,0.04,-9.17,-3.35,-0.8,23.37,5.06,55.881548840143504142999,0.0,0.0
1548840143532816886,234.0,208.0,398.0,337.0,41.0,243.0,988.0,1005.0,0.675639382287,-0.253250320454,0.692486113654,0.000244155527071,0.0,0.0,-0.03,-9.18,-3.36,-0.88,23.37,5.06,55.881548840143520705938,0.0,0.0
1548840143548748970,234.0,212.0,388.0,331.0,147.0,233.0,998.0,1012.0,0.675639382287,-0.253250320454,0.692486113654,0.000244155527071,0.0,0.0,0.04,-9.16,-3.34,-0.81,23.37,5.06,55.881548840143537098884,0.0,0.0
1548840143566030979,235.0,219.0,389.0,351.0,89.0,230.0,987.0,1003.0,0.675639382287,-0.253250320454,0.692486113654,0.000244155527071,0.0,0.01,0.05,-9.16,-3.35,-0.77,23.37,4.38,56.381548840143553633928,0.0,0.0
1548840143582051992,235.0,204.0,383.0,348.0,159.0,222.0,1003.0,1012.0,0.675639382287,-0.253250320454,0.692486113654,0.000244155527071,0.0,0.0,-0.02,-9.17,-3.35,-0.88,23.37,4.38,56.381548840143570622920,0.0,0.0
1548840143598757982,231.0,186.0,385.0,345.0,310.0,94.0,995.0,1011.0,0.675639382287,-0.253250320454,0.692486113654,0.000244155527071,0.0,0.0,0.02,-9.17,-3.34,-0.83,23.37,4.38,56.381548840143586941957,0.0,0.0
1548840143614959955,141.0,192.0,388.0,345.0,281.0,204.0,996.0,1009.0,0.675639382287,-0.253250320454,0.692486113654,0.000244155527071,0.0,0.0,0.06,-9.18,-3.35,-0.84,23.0,4.06,54.751548840143603688955,0.0,0.0
1548840143631968021,134.0,190.0,384.0,339.0,267.0,243.0,991.0,1012.0,0.675639382287,-0.253250320454,0.692486113654,0.000244155527071,0.0,0.0,-0.03,-9.17,-3.35,-0.89,23.0,4.06,54.751548840143620183944,0.0,0.0
1548840143648282051,198.0,190.0,380.0,336.0,140.0,219.0,992.0,1009.0,0.675639382287,-0.253250320454,0.692486113654,0.000244155527071,0.0,0.0,0.03,-9.16,-3.36,-0.82,23.0,4.06,54.751548840143636411905,0.0,0.0
1548840143665025949,229.0,218.0,378.0,339.0,209.0,231.0,992.0,1007.0,0.675639382287,-0.253250320454,0.692486113654,0.000244155527071,0.01,0.02,0.06,-9.16,-3.34,-0.82,22.56,3.69,56.251548840143653127908,0.0,0.0
1548840143681374073,228.0,235.0,380.0,338.0,274.0,214.0,985.0,1005.0,0.675639382287,-0.253250320454,0.692486113654,0.000244155527071,0.0,0.0,-0.05,-9.17,-3.34,-0.9,22.56,3.69,56.251548840143669466018,0.0,0.0
1548840143697768926,204.0,233.0,392.0,332.0,116.0,238.0,998.0,1013.0,0.675639382287,-0.253250320454,0.692486113654,0.000244155527071,0.0,0.0,0.02,-9.16,-3.34,-0.83,22.56,3.69,56.251548840143686068058,0.0,0.0
1548840143714139938,198.0,220.0,390.0,340.0,86.0,182.0,993.0,1010.0,0.675639382287,-0.253250320454,0.692486113654,0.000244155527071,0.0,0.0,0.06,-9.18,-3.34,-0.78,21.87,4.38,55.51548840143702765941,0.0,0.0
1548840143730541944,233.0,214.0,395.0,344.0,85.0,205.0,997.0,1013.0,0.675639382287,-0.253250320454,0.692486113654,0.000244155527071,-0.01,0.0,-0.04,-9.19,-3.35,-0.9,21.87,4.38,55.51548840143718950986,0.0,0.0
1548840143746928930,237.0,134.0,399.0,347.0,144.0,164.0,998.0,1008.0,0.675639382287,-0.253250320454,0.692486113654,0.000244155527071,0.0,0.0,-0.01,-9.14,-3.34,-0.8,21.87,4.38,55.51548840143735285997,0.0,0.0
1548840143763951063,236.0,111.0,398.0,342.0,117.0,74.0,996.0,1010.0,0.675639382287,-0.253250320454,0.692486113654,0.000244155527071,0.02,0.0,0.07,-9.15,-3.34,-0.78,23.0,3.69,55.061548840143752098083,0.0,0.0
1548840143779898881,229.0,137.0,419.0,350.0,254.0,225.0,984.0,1003.0,0.675639382287,-0.253250320454,0.692486113654,0.000244155527071,0.0,0.0,-0.05,-9.17,-3.35,-0.9,23.0,3.69,55.061548840143768501043,0.0,0.0
1548840143796705007,226.0,200.0,410.0,324.0,256.0,225.0,997.0,1008.0,0.675639382287,-0.253250320454,0.692486113654,0.000244155527071,0.0,0.0,-0.01,-9.16,-3.34,-0.8,23.0,3.69,55.061548840143784760951,0.0,0.0
1548840143812797069,193.0,206.0,396.0,321.0,127.0,207.0,979.0,1003.0,0.675639382287,-0.253250320454,0.692486113654,0.000244155527071,0.0,0.0,0.05,-9.18,-3.34,-0.8,23.0,4.38,56.751548840143801815032,0.0,0.0
1548840143829663038,187.0,202.0,378.0,314.0,179.0,225.0,990.0,1009.0,0.675639382287,-0.253250320454,0.692486113654,0.000244155527071,-0.01,0.01,-0.05,-9.19,-3.33,-0.9,23.0,4.38,56.751548840143818057060,0.0,0.0
1548840143845973014,212.0,207.0,383.0,316.0,254.0,230.0,984.0,1003.0,0.675639382287,-0.253250320454,0.692486113654,0.000244155527071,0.0,0.0,0.0,-9.16,-3.35,-0.82,23.0,4.38,56.751548840143834671974,0.0,0.0
1548840143862566947,236.0,203.0,365.0,312.0,249.0,193.0,994.0,1011.0,0.675639382287,-0.253250320454,0.692486113654,0.000244155527071,-0.01,-0.01,0.06,-9.18,-3.36,-0.79,23.37,5.06,56.251548840143851018905,0.0,0.0
1548840143879210948,232.0,198.0,367.0,343.0,106.0,186.0,994.0,1010.0,0.675639382287,-0.253250320454,0.692486113654,0.000244155527071,0.0,0.0,-0.05,-9.17,-3.35,-0.9,23.37,5.06,56.251548840143867398977,0.0,0.0
1548840143895457029,226.0,200.0,396.0,344.0,166.0,127.0,992.0,1009.0,0.675639382287,-0.253250320454,0.692486113654,0.000244155527071,0.0,0.0,-0.01,-9.18,-3.34,-0.81,23.37,5.06,56.251548840143884110927,0.0,0.0
1548840143911688089,229.0,207.0,410.0,339.0,211.0,152.0,994.0,1009.0,0.675639382287,-0.253250320454,0.692486113654,0.000244155527071,-0.01,0.0,0.02,-9.19,-3.35,-0.82,23.37,4.75,55.881548840143900430917,0.0,0.0
1548840143928452014,223.0,206.0,413.0,338.0,231.0,232.0,990.0,1007.0,0.675639382287,-0.253250320454,0.692486113654,0.000244155527071,-0.01,0.0,-0.03,-9.19,-3.35,-0.89,23.37,4.75,55.881548840143916799068,0.0,0.0
1548840143945318937,219.0,213.0,384.0,340.0,194.0,235.0,990.0,1001.0,0.675639382287,-0.253250320454,0.692486113654,0.000244155527071,0.0,0.0,0.0,-9.17,-3.34,-0.85,23.37,4.75,55.881548840143933584928,0.0,0.0
1548840143961527109,225.0,219.0,383.0,334.0,225.0,147.0,992.0,1009.0,0.675639382287,-0.253250320454,0.692486113654,0.000244155527071,0.01,0.0,0.05,-9.16,-3.34,-0.79,23.37,4.75,53.881548840143949901103,0.0,0.0
1548840143978372097,235.0,219.0,371.0,334.0,96.0,173.0,990.0,1010.0,0.675639382287,-0.253250320454,0.692486113654,0.000244155527071,0.0,0.0,0.06,-9.16,-3.35,-0.9,23.37,4.75,53.881548840143966274023,0.0,0.0
1548840143994810104,229.0,210.0,373.0,334.0,138.0,221.0,989.0,1010.0,0.675639382287,-0.253250320454,0.692486113654,0.000244155527071,0.0,0.0,0.01,-9.18,-3.34,-0.83,23.37,4.75,53.881548840143983125925,0.0,0.0
1548840144010873079,244.0,210.0,367.0,328.0,264.0,230.0,998.0,1013.0,0.675639382287,-0.253250320454,0.692486113654,0.000244155527071,0.0,0.0,0.04,-9.17,-3.34,-0.81,22.56,4.06,55.881548840143999352931,0.0,0.0
1548840144027710914,237.0,205.0,360.0,329.0,279.0,239.0,998.0,1011.0,0.675639382287,-0.253250320454,0.692486113654,0.000244155527071,0.0,0.0,0.01,-9.17,-3.33,-0.9,22.56,4.06,55.881548840144015727043,0.0,0.0
1548840144043886899,229.0,206.0,367.0,335.0,206.0,191.0,992.0,1011.0,0.675639382287,-0.253250320454,0.692486113654,0.000244155527071,0.0,0.0,0.0,-9.18,-3.35,-0.86,22.56,4.06,55.881548840144032541990,0.0,0.0
1548840144060471057,219.0,185.0,387.0,337.0,44.0,59.0,992.0,1005.0,0.675639382287,-0.253250320454,0.692486113654,0.000244155527071,0.0,0.0,0.05,-9.18,-3.34,-0.8,22.56,4.38,55.881548840144048803091,0.0,0.0
1548840144075798988,221.0,136.0,394.0,345.0,169.0,221.0,999.0,1012.0,0.675639382287,-0.253250320454,0.692486113654,0.000244155527071,0.0,0.0,0.03,-9.18,-3.34,-0.89,22.56,4.38,55.881548840144065557956,0.0,0.0
1548840144093441963,231.0,134.0,400.0,349.0,265.0,241.0,992.0,1004.0,0.675639382287,-0.253250320454,0.692486113654,0.000244155527071,-0.01,0.0,-0.01,-9.19,-3.35,-0.87,22.56,4.38,55.881548840144081918954,0.0,0.0
1548840144109831094,235.0,201.0,400.0,336.0,268.0,227.0,996.0,1016.0,0.675639382287,-0.253250320454,0.692486113654,0.000244155527071,-0.01,0.02,0.06,-9.17,-3.34,-0.79,22.25,4.38,56.751548840144098293066,0.0,0.0
1548840144126673936,235.0,208.0,411.0,334.0,244.0,171.0,986.0,1009.0,0.675639382287,-0.253250320454,0.692486113654,0.000244155527071,0.0,0.02,0.04,-9.17,-3.34,-0.89,22.25,4.38,56.751548840144114952087,0.0,0.0
1548840144143353939,235.0,216.0,387.0,326.0,198.0,230.0,992.0,1009.0,0.675639382287,-0.253250320454,0.692486113654,0.000244155527071,0.0,0.02,0.02,-9.17,-3.32,-0.82,22.25,4.38,56.751548840144131412982,0.0,0.0
1548840144159279108,239.0,223.0,386.0,338.0,245.0,230.0,998.0,1013.0,0.675639382287,-0.253250320454,0.692486113654,0.000244155527071,0.0,0.0,0.05,-9.19,-3.32,-0.81,22.56,4.75,56.251548840144147764921,0.0,0.0
1548840144176038980,243.0,217.0,387.0,337.0,255.0,226.0,987.0,1001.0,0.675639382287,-0.253250320454,0.692486113654,0.000244155527071,-0.01,0.02,0.04,-9.19,-3.32,-0.81,22.56,4.75,56.251548840144164383888,0.0,0.0
1548840144192933082,241.0,213.0,403.0,331.0,272.0,156.0,994.0,1013.0,0.675639382287,-0.253250320454,0.692486113654,0.000244155527071,0.0,0.03,0.0,-9.16,-3.31,-0.85,22.56,4.75,56.251548840144180892944,0.0,0.0
1548840144209160089,238.0,216.0,406.0,330.0,264.0,150.0,1001.0,1014.0,0.675639382287,-0.253250320454,0.692486113654,0.000244155527071,0.0,0.0,0.03,-9.17,-3.34,-0.79,23.0,3.69,54.751548840144197165012,0.0,0.0
1548840144225471973,235.0,221.0,376.0,325.0,121.0,233.0,991.0,1003.0,0.675639382287,-0.253250320454,0.692486113654,0.000244155527071,-0.01,-0.01,0.01,-9.19,-3.36,-0.83,23.0,3.69,54.751548840144213849067,0.0,0.0
1548840144241960048,208.0,225.0,370.0,342.0,214.0,241.0,998.0,1009.0,0.675639382287,-0.253250320454,0.692486113654,0.000244155527071,0.0,0.0,0.01,-9.18,-3.35,-0.83,23.0,3.69,54.751548840144230235099,0.0,0.0
1548840144258546113,177.0,223.0,376.0,340.0,267.0,230.0,994.0,1006.0,0.675639382287,-0.253250320454,0.692486113654,0.000244155527071,0.0,0.0,0.03,-9.17,-3.34,-0.79,21.87,5.06,56.751548840144246725082,0.0,0.0
1548840144274600982,180.0,218.0,405.0,341.0,248.0,215.0,987.0,1005.0,0.675639382287,-0.253250320454,0.692486113654,0.000244155527071,0.0,0.01,0.03,-9.18,-3.33,-0.82,21.87,5.06,56.751548840144263349056,0.0,0.0
1548840144291524887,255.0,220.0,406.0,343.0,243.0,223.0,992.0,1005.0,0.675639382287,-0.253250320454,0.692486113654,0.000244155527071,0.0,0.0,-0.01,-9.16,-3.34,-0.87,21.87,5.06,56.751548840144279670953,0.0,0.0
1548840144307802915,251.0,208.0,389.0,331.0,264.0,238.0,1000.0,1015.0,0.675639382287,-0.253250320454,0.692486113654,0.000244155527071,0.0,0.0,0.07,-9.17,-3.34,-0.78,23.37,4.06,54.751548840144296540975,0.0,0.0
1548840144324325084,239.0,211.0,395.0,339.0,260.0,234.0,996.0,1011.0,0.675639382287,-0.253250320454,0.692486113654,0.000244155527071,0.0,0.03,0.04,-9.16,-3.31,-0.81,23.37,4.06,54.751548840144312800884,0.0,0.0
1548840144340423107,225.0,204.0,388.0,345.0,111.0,145.0,987.0,998.0,0.675639382287,-0.253250320454,0.692486113654,0.000244155527071,-0.01,-0.01,0.0,-9.18,-3.36,-0.85,23.37,4.06,54.751548840144329184055,0.0,0.0
1548840144357136011,222.0,203.0,376.0,325.0,236.0,25.0,1001.0,1013.0,0.675639382287,-0.253250320454,0.692486113654,0.000244155527071,0.0,0.01,0.05,-9.17,-3.33,-0.8,21.87,4.38,55.51548840144345943927,0.0,0.0
1548840144373816967,196.0,209.0,378.0,331.0,219.0,181.0,985.0,999.0,0.675639382287,-0.253250320454,0.692486113654,0.000244155527071,0.0,0.0,0.04,-9.17,-3.35,-0.8,21.87,4.38,55.51548840144362396955,0.0,0.0
1548840144389799118,194.0,190.0,401.0,324.0,148.0,237.0,992.0,1013.0,0.675639382287,-0.253250320454,0.692486113654,0.000244155527071,-0.01,0.0,-0.06,-9.17,-3.34,-0.86,21.87,4.38,55.51548840144378736972,0.0,0.0
1548840144406711101,235.0,189.0,407.0,331.0,49.0,239.0,994.0,1014.0,0.675639382287,-0.253250320454,0.692486113654,0.000244155527071,0.0,0.01,0.02,-9.18,-3.33,-0.82,21.87,4.38,5